<table id="table-stock-results">
                    <thead class="thin-border-bottom">
                        <tr class="bg-black">
                            <th rowspan="2" class="ac">ชนิดหวย</th>
                            <th rowspan="2" class="ac">ชื่องวด</th>
                            <th colspan="3" class="ac">3 ตัวท้าย</th>
                        </tr>
                        <tr>
                        <th class="ac">3 ตัวบน</th>
                        <th class="ac">2 ตัวบน</th>
                        <th class="ac">2 ตัวล่าง</th>
                        </tr>
                    </thead>
                    <tbody>
            <tr class="table-subsection">
      <td colspan="99" class="ac bolder">ซุปเปอร์ยี่กี</td>
    </tr>
        <tr>
      <td class="bolder">หวยยี่กี</td>
      <td class="bolder">จับยี่กี รอบที่ 1</td>
                      <td class="blue bolder ac">346</td>
        <td class="blue bolder ac">46</td>
        <td class="blue bolder ac">30</td>
                  </tr>
          <tr>
      <td class="bolder">หวยยี่กี</td>
      <td class="bolder">จับยี่กี รอบที่ 2</td>
                      <td class="blue bolder ac">295</td>
        <td class="blue bolder ac">95</td>
        <td class="blue bolder ac">20</td>
                  </tr>
          <tr>
      <td class="bolder">หวยยี่กี</td>
      <td class="bolder">จับยี่กี รอบที่ 3</td>
                      <td class="blue bolder ac">578</td>
        <td class="blue bolder ac">78</td>
        <td class="blue bolder ac">01</td>
                  </tr>
          <tr>
      <td class="bolder">หวยยี่กี</td>
      <td class="bolder">จับยี่กี รอบที่ 4</td>
                      <td class="blue bolder ac">218</td>
        <td class="blue bolder ac">18</td>
        <td class="blue bolder ac">09</td>
                  </tr>
          <tr>
      <td class="bolder">หวยยี่กี</td>
      <td class="bolder">จับยี่กี รอบที่ 5</td>
                      <td class="blue bolder ac">816</td>
        <td class="blue bolder ac">16</td>
        <td class="blue bolder ac">45</td>
                  </tr>
          <tr>
      <td class="bolder">หวยยี่กี</td>
      <td class="bolder">จับยี่กี รอบที่ 6</td>
                      <td class="blue bolder ac">846</td>
        <td class="blue bolder ac">46</td>
        <td class="blue bolder ac">45</td>
                  </tr>
          <tr>
      <td class="bolder">หวยยี่กี</td>
      <td class="bolder">จับยี่กี รอบที่ 7</td>
                      <td class="blue bolder ac">095</td>
        <td class="blue bolder ac">95</td>
        <td class="blue bolder ac">18</td>
                  </tr>
          <tr>
      <td class="bolder">หวยยี่กี</td>
      <td class="bolder">จับยี่กี รอบที่ 8</td>
                      <td class="blue bolder ac">383</td>
        <td class="blue bolder ac">83</td>
        <td class="blue bolder ac">48</td>
                  </tr>
          <tr>
      <td class="bolder">หวยยี่กี</td>
      <td class="bolder">จับยี่กี รอบที่ 9</td>
                      <td class="blue bolder ac">724</td>
        <td class="blue bolder ac">24</td>
        <td class="blue bolder ac">08</td>
                  </tr>
          <tr>
      <td class="bolder">หวยยี่กี</td>
      <td class="bolder">จับยี่กี รอบที่ 10</td>
                      <td class="blue bolder ac">137</td>
        <td class="blue bolder ac">37</td>
        <td class="blue bolder ac">08</td>
                  </tr>
          <tr>
      <td class="bolder">หวยยี่กี</td>
      <td class="bolder">จับยี่กี รอบที่ 11</td>
                      <td class="blue bolder ac">545</td>
        <td class="blue bolder ac">45</td>
        <td class="blue bolder ac">72</td>
                  </tr>
          <tr>
      <td class="bolder">หวยยี่กี</td>
      <td class="bolder">จับยี่กี รอบที่ 12</td>
                      <td class="blue bolder ac">185</td>
        <td class="blue bolder ac">85</td>
        <td class="blue bolder ac">41</td>
                  </tr>
          <tr>
      <td class="bolder">หวยยี่กี</td>
      <td class="bolder">จับยี่กี รอบที่ 13</td>
                      <td class="blue bolder ac">972</td>
        <td class="blue bolder ac">72</td>
        <td class="blue bolder ac">91</td>
                  </tr>
          <tr>
      <td class="bolder">หวยยี่กี</td>
      <td class="bolder">จับยี่กี รอบที่ 14</td>
                      <td class="blue bolder ac">195</td>
        <td class="blue bolder ac">95</td>
        <td class="blue bolder ac">20</td>
                  </tr>
          <tr>
      <td class="bolder">หวยยี่กี</td>
      <td class="bolder">จับยี่กี รอบที่ 15</td>
                      <td class="blue bolder ac">103</td>
        <td class="blue bolder ac">03</td>
        <td class="blue bolder ac">59</td>
                  </tr>
          <tr>
      <td class="bolder">หวยยี่กี</td>
      <td class="bolder">จับยี่กี รอบที่ 16</td>
                      <td class="blue bolder ac">547</td>
        <td class="blue bolder ac">47</td>
        <td class="blue bolder ac">67</td>
                  </tr>
          <tr>
      <td class="bolder">หวยยี่กี</td>
      <td class="bolder">จับยี่กี รอบที่ 17</td>
                      <td class="blue bolder ac">196</td>
        <td class="blue bolder ac">96</td>
        <td class="blue bolder ac">14</td>
                  </tr>
          <tr>
      <td class="bolder">หวยยี่กี</td>
      <td class="bolder">จับยี่กี รอบที่ 18</td>
                      <td class="blue bolder ac">821</td>
        <td class="blue bolder ac">21</td>
        <td class="blue bolder ac">55</td>
                  </tr>
          <tr>
      <td class="bolder">หวยยี่กี</td>
      <td class="bolder">จับยี่กี รอบที่ 19</td>
                      <td class="blue bolder ac">181</td>
        <td class="blue bolder ac">81</td>
        <td class="blue bolder ac">97</td>
                  </tr>
          <tr>
      <td class="bolder">หวยยี่กี</td>
      <td class="bolder">จับยี่กี รอบที่ 20</td>
                      <td class="blue bolder ac">499</td>
        <td class="blue bolder ac">99</td>
        <td class="blue bolder ac">76</td>
                  </tr>
          <tr>
      <td class="bolder">หวยยี่กี</td>
      <td class="bolder">จับยี่กี รอบที่ 21</td>
                      <td class="blue bolder ac">342</td>
        <td class="blue bolder ac">42</td>
        <td class="blue bolder ac">12</td>
                  </tr>
          <tr>
      <td class="bolder">หวยยี่กี</td>
      <td class="bolder">จับยี่กี รอบที่ 22</td>
                      <td class="blue bolder ac">589</td>
        <td class="blue bolder ac">89</td>
        <td class="blue bolder ac">56</td>
                  </tr>
          <tr>
      <td class="bolder">หวยยี่กี</td>
      <td class="bolder">จับยี่กี รอบที่ 23</td>
                      <td class="blue bolder ac">132</td>
        <td class="blue bolder ac">32</td>
        <td class="blue bolder ac">56</td>
                  </tr>
          <tr>
      <td class="bolder">หวยยี่กี</td>
      <td class="bolder">จับยี่กี รอบที่ 24</td>
                      <td class="blue bolder ac">285</td>
        <td class="blue bolder ac">85</td>
        <td class="blue bolder ac">52</td>
                  </tr>
          <tr>
      <td class="bolder">หวยยี่กี</td>
      <td class="bolder">จับยี่กี รอบที่ 25</td>
                      <td class="blue bolder ac">573</td>
        <td class="blue bolder ac">73</td>
        <td class="blue bolder ac">14</td>
                  </tr>
          <tr>
      <td class="bolder">หวยยี่กี</td>
      <td class="bolder">จับยี่กี รอบที่ 26</td>
                      <td class="blue bolder ac">428</td>
        <td class="blue bolder ac">28</td>
        <td class="blue bolder ac">74</td>
                  </tr>
          <tr>
      <td class="bolder">หวยยี่กี</td>
      <td class="bolder">จับยี่กี รอบที่ 27</td>
                      <td class="blue bolder ac">203</td>
        <td class="blue bolder ac">03</td>
        <td class="blue bolder ac">73</td>
                  </tr>
          <tr>
      <td class="bolder">หวยยี่กี</td>
      <td class="bolder">จับยี่กี รอบที่ 28</td>
                      <td class="blue bolder ac">786</td>
        <td class="blue bolder ac">86</td>
        <td class="blue bolder ac">50</td>
                  </tr>
          <tr>
      <td class="bolder">หวยยี่กี</td>
      <td class="bolder">จับยี่กี รอบที่ 29</td>
                      <td class="blue bolder ac">064</td>
        <td class="blue bolder ac">64</td>
        <td class="blue bolder ac">26</td>
                  </tr>
          <tr>
      <td class="bolder">หวยยี่กี</td>
      <td class="bolder">จับยี่กี รอบที่ 30</td>
                      <td class="blue bolder ac">356</td>
        <td class="blue bolder ac">56</td>
        <td class="blue bolder ac">42</td>
                  </tr>
          <tr>
      <td class="bolder">หวยยี่กี</td>
      <td class="bolder">จับยี่กี รอบที่ 31</td>
                      <td class="blue bolder ac">924</td>
        <td class="blue bolder ac">24</td>
        <td class="blue bolder ac">23</td>
                  </tr>
          <tr>
      <td class="bolder">หวยยี่กี</td>
      <td class="bolder">จับยี่กี รอบที่ 32</td>
                      <td class="blue bolder ac">205</td>
        <td class="blue bolder ac">05</td>
        <td class="blue bolder ac">88</td>
                  </tr>
          <tr>
      <td class="bolder">หวยยี่กี</td>
      <td class="bolder">จับยี่กี รอบที่ 33</td>
                      <td class="blue bolder ac">595</td>
        <td class="blue bolder ac">95</td>
        <td class="blue bolder ac">78</td>
                  </tr>
          <tr>
      <td class="bolder">หวยยี่กี</td>
      <td class="bolder">จับยี่กี รอบที่ 34</td>
                      <td class="blue bolder ac">914</td>
        <td class="blue bolder ac">14</td>
        <td class="blue bolder ac">60</td>
                  </tr>
          <tr>
      <td class="bolder">หวยยี่กี</td>
      <td class="bolder">จับยี่กี รอบที่ 35</td>
                      <td class="blue bolder ac">803</td>
        <td class="blue bolder ac">03</td>
        <td class="blue bolder ac">81</td>
                  </tr>
          <tr>
      <td class="bolder">หวยยี่กี</td>
      <td class="bolder">จับยี่กี รอบที่ 36</td>
                      <td class="blue bolder ac">026</td>
        <td class="blue bolder ac">26</td>
        <td class="blue bolder ac">14</td>
                  </tr>
          <tr>
      <td class="bolder">หวยยี่กี</td>
      <td class="bolder">จับยี่กี รอบที่ 37</td>
                      <td class="blue bolder ac">015</td>
        <td class="blue bolder ac">15</td>
        <td class="blue bolder ac">51</td>
                  </tr>
          <tr>
      <td class="bolder">หวยยี่กี</td>
      <td class="bolder">จับยี่กี รอบที่ 38</td>
                      <td class="blue bolder ac">930</td>
        <td class="blue bolder ac">30</td>
        <td class="blue bolder ac">93</td>
                  </tr>
          <tr>
      <td class="bolder">หวยยี่กี</td>
      <td class="bolder">จับยี่กี รอบที่ 39</td>
                      <td class="blue bolder ac">470</td>
        <td class="blue bolder ac">70</td>
        <td class="blue bolder ac">30</td>
                  </tr>
          <tr>
      <td class="bolder">หวยยี่กี</td>
      <td class="bolder">จับยี่กี รอบที่ 40</td>
                      <td class="blue bolder ac">068</td>
        <td class="blue bolder ac">68</td>
        <td class="blue bolder ac">81</td>
                  </tr>
          <tr>
      <td class="bolder">หวยยี่กี</td>
      <td class="bolder">จับยี่กี รอบที่ 41</td>
                      <td class="blue bolder ac">465</td>
        <td class="blue bolder ac">65</td>
        <td class="blue bolder ac">20</td>
                  </tr>
          <tr>
      <td class="bolder">หวยยี่กี</td>
      <td class="bolder">จับยี่กี รอบที่ 42</td>
                      <td class="blue bolder ac">588</td>
        <td class="blue bolder ac">88</td>
        <td class="blue bolder ac">90</td>
                  </tr>
          <tr>
      <td class="bolder">หวยยี่กี</td>
      <td class="bolder">จับยี่กี รอบที่ 43</td>
                      <td class="blue bolder ac">861</td>
        <td class="blue bolder ac">61</td>
        <td class="blue bolder ac">85</td>
                  </tr>
          <tr>
      <td class="bolder">หวยยี่กี</td>
      <td class="bolder">จับยี่กี รอบที่ 44</td>
                      <td class="blue bolder ac">362</td>
        <td class="blue bolder ac">62</td>
        <td class="blue bolder ac">44</td>
                  </tr>
          <tr>
      <td class="bolder">หวยยี่กี</td>
      <td class="bolder">จับยี่กี รอบที่ 45</td>
                      <td class="blue bolder ac">795</td>
        <td class="blue bolder ac">95</td>
        <td class="blue bolder ac">64</td>
                  </tr>
          <tr>
      <td class="bolder">หวยยี่กี</td>
      <td class="bolder">จับยี่กี รอบที่ 46</td>
                      <td class="blue bolder ac">017</td>
        <td class="blue bolder ac">17</td>
        <td class="blue bolder ac">65</td>
                  </tr>
          <tr>
      <td class="bolder">หวยยี่กี</td>
      <td class="bolder">จับยี่กี รอบที่ 47</td>
                      <td class="blue bolder ac">482</td>
        <td class="blue bolder ac">82</td>
        <td class="blue bolder ac">67</td>
                  </tr>
          <tr>
      <td class="bolder">หวยยี่กี</td>
      <td class="bolder">จับยี่กี รอบที่ 48</td>
                      <td class="blue bolder ac">121</td>
        <td class="blue bolder ac">21</td>
        <td class="blue bolder ac">45</td>
                  </tr>
          <tr>
      <td class="bolder">หวยยี่กี</td>
      <td class="bolder">จับยี่กี รอบที่ 49</td>
                      <td class="blue bolder ac">086</td>
        <td class="blue bolder ac">86</td>
        <td class="blue bolder ac">31</td>
                  </tr>
          <tr>
      <td class="bolder">หวยยี่กี</td>
      <td class="bolder">จับยี่กี รอบที่ 50</td>
                      <td class="blue bolder ac">411</td>
        <td class="blue bolder ac">11</td>
        <td class="blue bolder ac">71</td>
                  </tr>
          <tr>
      <td class="bolder">หวยยี่กี</td>
      <td class="bolder">จับยี่กี รอบที่ 51</td>
                      <td class="blue bolder ac">407</td>
        <td class="blue bolder ac">07</td>
        <td class="blue bolder ac">37</td>
                  </tr>
          <tr>
      <td class="bolder">หวยยี่กี</td>
      <td class="bolder">จับยี่กี รอบที่ 52</td>
                      <td class="blue bolder ac">916</td>
        <td class="blue bolder ac">16</td>
        <td class="blue bolder ac">52</td>
                  </tr>
          <tr>
      <td class="bolder">หวยยี่กี</td>
      <td class="bolder">จับยี่กี รอบที่ 53</td>
                      <td class="blue bolder ac">925</td>
        <td class="blue bolder ac">25</td>
        <td class="blue bolder ac">48</td>
                  </tr>
          <tr>
      <td class="bolder">หวยยี่กี</td>
      <td class="bolder">จับยี่กี รอบที่ 54</td>
                      <td class="blue bolder ac">224</td>
        <td class="blue bolder ac">24</td>
        <td class="blue bolder ac">95</td>
                  </tr>
          <tr>
      <td class="bolder">หวยยี่กี</td>
      <td class="bolder">จับยี่กี รอบที่ 55</td>
                      <td class="blue bolder ac">225</td>
        <td class="blue bolder ac">25</td>
        <td class="blue bolder ac">66</td>
                  </tr>
          <tr>
      <td class="bolder">หวยยี่กี</td>
      <td class="bolder">จับยี่กี รอบที่ 56</td>
                      <td class="blue bolder ac">916</td>
        <td class="blue bolder ac">16</td>
        <td class="blue bolder ac">04</td>
                  </tr>
          <tr>
      <td class="bolder">หวยยี่กี</td>
      <td class="bolder">จับยี่กี รอบที่ 57</td>
                      <td class="blue bolder ac">411</td>
        <td class="blue bolder ac">11</td>
        <td class="blue bolder ac">51</td>
                  </tr>
          <tr>
      <td class="bolder">หวยยี่กี</td>
      <td class="bolder">จับยี่กี รอบที่ 58</td>
                      <td class="blue bolder ac">940</td>
        <td class="blue bolder ac">40</td>
        <td class="blue bolder ac">26</td>
                  </tr>
          <tr>
      <td class="bolder">หวยยี่กี</td>
      <td class="bolder">จับยี่กี รอบที่ 59</td>
                      <td class="blue bolder ac">821</td>
        <td class="blue bolder ac">21</td>
        <td class="blue bolder ac">47</td>
                  </tr>
          <tr>
      <td class="bolder">หวยยี่กี</td>
      <td class="bolder">จับยี่กี รอบที่ 60</td>
                      <td class="blue bolder ac">902</td>
        <td class="blue bolder ac">02</td>
        <td class="blue bolder ac">82</td>
                  </tr>
          <tr>
      <td class="bolder">หวยยี่กี</td>
      <td class="bolder">จับยี่กี รอบที่ 61</td>
                      <td class="blue bolder ac">446</td>
        <td class="blue bolder ac">46</td>
        <td class="blue bolder ac">63</td>
                  </tr>
          <tr>
      <td class="bolder">หวยยี่กี</td>
      <td class="bolder">จับยี่กี รอบที่ 62</td>
                      <td class="blue bolder ac">196</td>
        <td class="blue bolder ac">96</td>
        <td class="blue bolder ac">95</td>
                  </tr>
          <tr>
      <td class="bolder">หวยยี่กี</td>
      <td class="bolder">จับยี่กี รอบที่ 63</td>
                      <td class="blue bolder ac">895</td>
        <td class="blue bolder ac">95</td>
        <td class="blue bolder ac">60</td>
                  </tr>
          <tr>
      <td class="bolder">หวยยี่กี</td>
      <td class="bolder">จับยี่กี รอบที่ 64</td>
                      <td class="blue bolder ac">881</td>
        <td class="blue bolder ac">81</td>
        <td class="blue bolder ac">86</td>
                  </tr>
          <tr>
      <td class="bolder">หวยยี่กี</td>
      <td class="bolder">จับยี่กี รอบที่ 65</td>
                      <td class="blue bolder ac">754</td>
        <td class="blue bolder ac">54</td>
        <td class="blue bolder ac">43</td>
                  </tr>
          <tr>
      <td class="bolder">หวยยี่กี</td>
      <td class="bolder">จับยี่กี รอบที่ 66</td>
                      <td class="blue bolder ac">774</td>
        <td class="blue bolder ac">74</td>
        <td class="blue bolder ac">23</td>
                  </tr>
          <tr>
      <td class="bolder">หวยยี่กี</td>
      <td class="bolder">จับยี่กี รอบที่ 67</td>
                      <td class="blue bolder ac">085</td>
        <td class="blue bolder ac">85</td>
        <td class="blue bolder ac">06</td>
                  </tr>
          <tr>
      <td class="bolder">หวยยี่กี</td>
      <td class="bolder">จับยี่กี รอบที่ 68</td>
                      <td class="blue bolder ac">345</td>
        <td class="blue bolder ac">45</td>
        <td class="blue bolder ac">83</td>
                  </tr>
          <tr>
      <td class="bolder">หวยยี่กี</td>
      <td class="bolder">จับยี่กี รอบที่ 69</td>
                      <td class="blue bolder ac">361</td>
        <td class="blue bolder ac">61</td>
        <td class="blue bolder ac">46</td>
                  </tr>
          <tr>
      <td class="bolder">หวยยี่กี</td>
      <td class="bolder">จับยี่กี รอบที่ 70</td>
                      <td class="blue bolder ac">822</td>
        <td class="blue bolder ac">22</td>
        <td class="blue bolder ac">00</td>
                  </tr>
          <tr>
      <td class="bolder">หวยยี่กี</td>
      <td class="bolder">จับยี่กี รอบที่ 71</td>
                      <td class="blue bolder ac">049</td>
        <td class="blue bolder ac">49</td>
        <td class="blue bolder ac">53</td>
                  </tr>
          <tr>
      <td class="bolder">หวยยี่กี</td>
      <td class="bolder">จับยี่กี รอบที่ 72</td>
                      <td class="blue bolder ac">466</td>
        <td class="blue bolder ac">66</td>
        <td class="blue bolder ac">22</td>
                  </tr>
          <tr>
      <td class="bolder">หวยยี่กี</td>
      <td class="bolder">จับยี่กี รอบที่ 73</td>
                      <td class="blue bolder ac">637</td>
        <td class="blue bolder ac">37</td>
        <td class="blue bolder ac">10</td>
                  </tr>
          <tr>
      <td class="bolder">หวยยี่กี</td>
      <td class="bolder">จับยี่กี รอบที่ 74</td>
                      <td class="blue bolder ac">894</td>
        <td class="blue bolder ac">94</td>
        <td class="blue bolder ac">59</td>
                  </tr>
          <tr>
      <td class="bolder">หวยยี่กี</td>
      <td class="bolder">จับยี่กี รอบที่ 75</td>
                      <td class="blue bolder ac">953</td>
        <td class="blue bolder ac">53</td>
        <td class="blue bolder ac">88</td>
                  </tr>
          <tr>
      <td class="bolder">หวยยี่กี</td>
      <td class="bolder">จับยี่กี รอบที่ 76</td>
                      <td class="blue bolder ac">964</td>
        <td class="blue bolder ac">64</td>
        <td class="blue bolder ac">67</td>
                  </tr>
          <tr>
      <td class="bolder">หวยยี่กี</td>
      <td class="bolder">จับยี่กี รอบที่ 77</td>
                      <td class="blue bolder ac">341</td>
        <td class="blue bolder ac">41</td>
        <td class="blue bolder ac">72</td>
                  </tr>
          <tr>
      <td class="bolder">หวยยี่กี</td>
      <td class="bolder">จับยี่กี รอบที่ 78</td>
                      <td class="blue bolder ac">491</td>
        <td class="blue bolder ac">91</td>
        <td class="blue bolder ac">31</td>
                  </tr>
          <tr>
      <td class="bolder">หวยยี่กี</td>
      <td class="bolder">จับยี่กี รอบที่ 79</td>
                      <td class="blue bolder ac">951</td>
        <td class="blue bolder ac">51</td>
        <td class="blue bolder ac">51</td>
                  </tr>
          <tr>
      <td class="bolder">หวยยี่กี</td>
      <td class="bolder">จับยี่กี รอบที่ 80</td>
                      <td class="blue bolder ac">046</td>
        <td class="blue bolder ac">46</td>
        <td class="blue bolder ac">92</td>
                  </tr>
          <tr>
      <td class="bolder">หวยยี่กี</td>
      <td class="bolder">จับยี่กี รอบที่ 81</td>
                      <td class="blue bolder ac">294</td>
        <td class="blue bolder ac">94</td>
        <td class="blue bolder ac">48</td>
                  </tr>
          <tr>
      <td class="bolder">หวยยี่กี</td>
      <td class="bolder">จับยี่กี รอบที่ 82</td>
                      <td class="blue bolder ac">869</td>
        <td class="blue bolder ac">69</td>
        <td class="blue bolder ac">11</td>
                  </tr>
          <tr>
      <td class="bolder">หวยยี่กี</td>
      <td class="bolder">จับยี่กี รอบที่ 83</td>
                      <td class="blue bolder ac">242</td>
        <td class="blue bolder ac">42</td>
        <td class="blue bolder ac">50</td>
                  </tr>
          <tr>
      <td class="bolder">หวยยี่กี</td>
      <td class="bolder">จับยี่กี รอบที่ 84</td>
                      <td class="blue bolder ac">469</td>
        <td class="blue bolder ac">69</td>
        <td class="blue bolder ac">57</td>
                  </tr>
          <tr>
      <td class="bolder">หวยยี่กี</td>
      <td class="bolder">จับยี่กี รอบที่ 85</td>
                      <td class="blue bolder ac">065</td>
        <td class="blue bolder ac">65</td>
        <td class="blue bolder ac">71</td>
                  </tr>
          <tr>
      <td class="bolder">หวยยี่กี</td>
      <td class="bolder">จับยี่กี รอบที่ 86</td>
                      <td class="blue bolder ac">882</td>
        <td class="blue bolder ac">82</td>
        <td class="blue bolder ac">66</td>
                  </tr>
          <tr>
      <td class="bolder">หวยยี่กี</td>
      <td class="bolder">จับยี่กี รอบที่ 87</td>
                      <td class="blue bolder ac">084</td>
        <td class="blue bolder ac">84</td>
        <td class="blue bolder ac">03</td>
                  </tr>
          <tr>
      <td class="bolder">หวยยี่กี</td>
      <td class="bolder">จับยี่กี รอบที่ 88</td>
                      <td class="blue bolder ac">870</td>
        <td class="blue bolder ac">70</td>
        <td class="blue bolder ac">95</td>
                  </tr>
          <tr class="table-subsection">
      <td colspan="99" class="ac bolder">หวย ธกส.</td>
    </tr>
        <tr>
      <td class="bolder">หวย ธกส. (BAAC1)</td>
      <td class="bolder"></td>
                      <td class="blue bolder ac">&#8211;</td>
        <td class="blue bolder ac">&#8211;</td>
        <td class="blue bolder ac">&#8211;</td>
                  </tr>
          <tr>
      <td class="bolder">หวย ธกส. (BAAC2)</td>
      <td class="bolder"></td>
                      <td class="blue bolder ac">&#8211;</td>
        <td class="blue bolder ac">&#8211;</td>
        <td class="blue bolder ac">&#8211;</td>
                  </tr>
          <tr class="table-subsection">
      <td colspan="99" class="ac bolder">หวยหุ้นไทย</td>
    </tr>
        <tr>
      <td class="bolder">หวยหุ้นไทย รอบปิดเย็น</td>
      <td class="bolder"></td>
                      <td class="blue bolder ac">&#8211;</td>
        <td class="blue bolder ac">&#8211;</td>
        <td class="blue bolder ac">&#8211;</td>
                  </tr>
          <tr class="table-subsection">
      <td colspan="99" class="ac bolder">หวยลาว</td>
    </tr>
        <tr>
      <td class="bolder">หวยลาว วันจันทร์</td>
      <td class="bolder"></td>
                      <td class="blue bolder ac">&#8211;</td>
        <td class="blue bolder ac">&#8211;</td>
        <td class="blue bolder ac">&#8211;</td>
                  </tr>
          <tr>
      <td class="bolder">หวยลาว วันพุธ</td>
      <td class="bolder"></td>
                      <td class="blue bolder ac">&#8211;</td>
        <td class="blue bolder ac">&#8211;</td>
        <td class="blue bolder ac">&#8211;</td>
                  </tr>
          <tr>
      <td class="bolder">หวยลาว วันพฤหัส</td>
      <td class="bolder"></td>
                      <td class="blue bolder ac">&#8211;</td>
        <td class="blue bolder ac">&#8211;</td>
        <td class="blue bolder ac">&#8211;</td>
                  </tr>
          <tr class="table-subsection">
      <td colspan="99" class="ac bolder">Laostoday</td>
    </tr>
        <tr>
      <td class="bolder">ลาวทูเดย์</td>
      <td class="bolder"></td>
                      <td class="blue bolder ac">&#8211;</td>
        <td class="blue bolder ac">&#8211;</td>
        <td class="blue bolder ac">&#8211;</td>
                  </tr>
          <tr class="table-subsection">
      <td colspan="99" class="ac bolder">หวยเวียดนาม</td>
    </tr>
        <tr>
      <td class="bolder">ฮานอย H&agrave; Nội</td>
      <td class="bolder">งวดวันที่ 08-08-2020</td>
                      <td class="blue bolder ac">958</td>
        <td class="blue bolder ac">58</td>
        <td class="blue bolder ac">95</td>
                  </tr>
          <tr>
      <td class="bolder">ฮานอย วีไอพี Hanoi Vip</td>
      <td class="bolder">งวดวันที่ 08-08-2020</td>
                      <td class="blue bolder ac">537</td>
        <td class="blue bolder ac">37</td>
        <td class="blue bolder ac">82</td>
                  </tr>
          <tr class="table-subsection">
      <td colspan="99" class="ac bolder">หวยฮานอย แดงดำ</td>
    </tr>
        <tr>
      <td class="bolder">ฮานอย แดง</td>
      <td class="bolder">งวดวันที่ 08-08-2020</td>
                      <td class="blue bolder ac">958</td>
        <td class="blue bolder ac">58</td>
        <td class="blue bolder ac">12</td>
                  </tr>
          <tr>
      <td class="bolder">ฮานอย ดำ</td>
      <td class="bolder">งวดวันที่ 08-08-2020</td>
                      <td class="blue bolder ac">482</td>
        <td class="blue bolder ac">82</td>
        <td class="blue bolder ac">95</td>
                  </tr>
          <tr class="table-subsection">
      <td colspan="99" class="ac bolder">หวยเวียดนาม (ออนไลน์)</td>
    </tr>
        <tr>
      <td class="bolder">เวียดนาม</td>
      <td class="bolder">งวดวันที่ 08-08-2020</td>
                      <td class="blue bolder ac">991</td>
        <td class="blue bolder ac">91</td>
        <td class="blue bolder ac">57</td>
                  </tr>
          <tr>
      <td class="bolder">เวียดนาม VIP</td>
      <td class="bolder">งวดวันที่ 08-08-2020</td>
                      <td class="blue bolder ac">599</td>
        <td class="blue bolder ac">99</td>
        <td class="blue bolder ac">89</td>
                  </tr>
          <tr class="table-subsection">
      <td colspan="99" class="ac bolder">หวยมาเลย์ (Magnum4D)</td>
    </tr>
        <tr>
      <td class="bolder">หวยมาเลย์ วันพุธ</td>
      <td class="bolder"></td>
                      <td class="blue bolder ac">&#8211;</td>
        <td class="blue bolder ac">&#8211;</td>
        <td class="blue bolder ac">&#8211;</td>
                  </tr>
          <tr>
      <td class="bolder">หวยมาเลย์ วันเสาร์</td>
      <td class="bolder">งวดวันที่ 08-08-2020</td>
                      <td class="blue bolder ac">319</td>
        <td class="blue bolder ac">19</td>
        <td class="blue bolder ac">20</td>
                  </tr>
          <tr>
      <td class="bolder">หวยมาเลย์ วันอาทิตย์</td>
      <td class="bolder"></td>
                      <td class="blue bolder ac">&#8211;</td>
        <td class="blue bolder ac">&#8211;</td>
        <td class="blue bolder ac">&#8211;</td>
                  </tr>
          <tr class="table-subsection">
      <td colspan="99" class="ac bolder">หวยหุ้นต่างประเทศ</td>
    </tr>
        <tr>
      <td class="bolder">นิเคอิ รอบเช้า</td>
      <td class="bolder"></td>
                      <td class="blue bolder ac">&#8211;</td>
        <td class="blue bolder ac">&#8211;</td>
        <td class="blue bolder ac">&#8211;</td>
                  </tr>
          <tr>
      <td class="bolder">หุ้นจีน รอบเช้า</td>
      <td class="bolder"></td>
                      <td class="blue bolder ac">&#8211;</td>
        <td class="blue bolder ac">&#8211;</td>
        <td class="blue bolder ac">&#8211;</td>
                  </tr>
          <tr>
      <td class="bolder">ฮั่งเส็ง รอบเช้า</td>
      <td class="bolder"></td>
                      <td class="blue bolder ac">&#8211;</td>
        <td class="blue bolder ac">&#8211;</td>
        <td class="blue bolder ac">&#8211;</td>
                  </tr>
          <tr>
      <td class="bolder">หุ้นไต้หวัน</td>
      <td class="bolder"></td>
                      <td class="blue bolder ac">&#8211;</td>
        <td class="blue bolder ac">&#8211;</td>
        <td class="blue bolder ac">&#8211;</td>
                  </tr>
          <tr>
      <td class="bolder">หุ้นเกาหลี</td>
      <td class="bolder"></td>
                      <td class="blue bolder ac">&#8211;</td>
        <td class="blue bolder ac">&#8211;</td>
        <td class="blue bolder ac">&#8211;</td>
                  </tr>
          <tr>
      <td class="bolder">นิเคอิ รอบบ่าย</td>
      <td class="bolder"></td>
                      <td class="blue bolder ac">&#8211;</td>
        <td class="blue bolder ac">&#8211;</td>
        <td class="blue bolder ac">&#8211;</td>
                  </tr>
          <tr>
      <td class="bolder">หุ้นจีน รอบบ่าย</td>
      <td class="bolder"></td>
                      <td class="blue bolder ac">&#8211;</td>
        <td class="blue bolder ac">&#8211;</td>
        <td class="blue bolder ac">&#8211;</td>
                  </tr>
          <tr>
      <td class="bolder">ฮั่งเส็ง รอบบ่าย</td>
      <td class="bolder"></td>
                      <td class="blue bolder ac">&#8211;</td>
        <td class="blue bolder ac">&#8211;</td>
        <td class="blue bolder ac">&#8211;</td>
                  </tr>
          <tr>
      <td class="bolder">หุ้นสิงคโปร์</td>
      <td class="bolder"></td>
                      <td class="blue bolder ac">&#8211;</td>
        <td class="blue bolder ac">&#8211;</td>
        <td class="blue bolder ac">&#8211;</td>
                  </tr>
          <tr>
      <td class="bolder">หุ้นอินเดีย</td>
      <td class="bolder"></td>
                      <td class="blue bolder ac">&#8211;</td>
        <td class="blue bolder ac">&#8211;</td>
        <td class="blue bolder ac">&#8211;</td>
                  </tr>
          <tr>
      <td class="bolder">หุ้นอียิปต์</td>
      <td class="bolder"></td>
                      <td class="blue bolder ac">&#8211;</td>
        <td class="blue bolder ac">&#8211;</td>
        <td class="blue bolder ac">&#8211;</td>
                  </tr>
          <tr>
      <td class="bolder">หุ้นรัสเซีย</td>
      <td class="bolder"></td>
                      <td class="blue bolder ac">&#8211;</td>
        <td class="blue bolder ac">&#8211;</td>
        <td class="blue bolder ac">&#8211;</td>
                  </tr>
          <tr>
      <td class="bolder">หุ้นอังกฤษ</td>
      <td class="bolder"></td>
                      <td class="blue bolder ac">&#8211;</td>
        <td class="blue bolder ac">&#8211;</td>
        <td class="blue bolder ac">&#8211;</td>
                  </tr>
          <tr>
      <td class="bolder">หุ้นเยอรมัน</td>
      <td class="bolder"></td>
                      <td class="blue bolder ac">&#8211;</td>
        <td class="blue bolder ac">&#8211;</td>
        <td class="blue bolder ac">&#8211;</td>
                  </tr>
          <tr>
      <td class="bolder">หุ้นดาวน์โจน</td>
      <td class="bolder">งวดวันที่ 08-08-2020</td>
                      <td class="blue bolder ac">348</td>
        <td class="blue bolder ac">48</td>
        <td class="blue bolder ac">50</td>
                  </tr>
  </tbody>

                    </table>