<table id="table-stock-results">
                    <thead class="thin-border-bottom">
                        <tr class="bg-black">
                            <th rowspan="2" class="ac">ชนิดหวย</th>
                            <th rowspan="2" class="ac">ชื่องวด</th>
                            <th colspan="3" class="ac">3 ตัวท้าย</th>
                        </tr>
                        <tr>
                        <th class="ac">3 ตัวบน</th>
                        <th class="ac">2 ตัวบน</th>
                        <th class="ac">2 ตัวล่าง</th>
                        </tr>
                    </thead>
                    <tbody>
            <tr class="table-subsection">
      <td colspan="99" class="ac bolder">ซุปเปอร์ยี่กี</td>
    </tr>
        <tr>
      <td class="bolder">หวยยี่กี</td>
      <td class="bolder"></td>
                      <td class="blue bolder ac">&#8211;</td>
        <td class="blue bolder ac">&#8211;</td>
        <td class="blue bolder ac">&#8211;</td>
                  </tr>
          <tr class="table-subsection">
      <td colspan="99" class="ac bolder">หวย ธกส.</td>
    </tr>
        <tr>
      <td class="bolder">หวย ธกส. (BAAC1)</td>
      <td class="bolder"></td>
                      <td class="blue bolder ac">&#8211;</td>
        <td class="blue bolder ac">&#8211;</td>
        <td class="blue bolder ac">&#8211;</td>
                  </tr>
          <tr>
      <td class="bolder">หวย ธกส. (BAAC2)</td>
      <td class="bolder"></td>
                      <td class="blue bolder ac">&#8211;</td>
        <td class="blue bolder ac">&#8211;</td>
        <td class="blue bolder ac">&#8211;</td>
                  </tr>
          <tr class="table-subsection">
      <td colspan="99" class="ac bolder">หวยหุ้นไทย</td>
    </tr>
        <tr>
      <td class="bolder">หวยหุ้นไทย รอบปิดเย็น</td>
      <td class="bolder"></td>
                      <td class="blue bolder ac">&#8211;</td>
        <td class="blue bolder ac">&#8211;</td>
        <td class="blue bolder ac">&#8211;</td>
                  </tr>
          <tr class="table-subsection">
      <td colspan="99" class="ac bolder">หวยลาว</td>
    </tr>
        <tr>
      <td class="bolder">หวยลาว วันจันทร์</td>
      <td class="bolder"></td>
                      <td class="blue bolder ac">&#8211;</td>
        <td class="blue bolder ac">&#8211;</td>
        <td class="blue bolder ac">&#8211;</td>
                  </tr>
          <tr>
      <td class="bolder">หวยลาว วันพุธ</td>
      <td class="bolder"></td>
                      <td class="blue bolder ac">&#8211;</td>
        <td class="blue bolder ac">&#8211;</td>
        <td class="blue bolder ac">&#8211;</td>
                  </tr>
          <tr>
      <td class="bolder">หวยลาว วันพฤหัส</td>
      <td class="bolder"></td>
                      <td class="blue bolder ac">&#8211;</td>
        <td class="blue bolder ac">&#8211;</td>
        <td class="blue bolder ac">&#8211;</td>
                  </tr>
          <tr class="table-subsection">
      <td colspan="99" class="ac bolder">Laostoday</td>
    </tr>
        <tr>
      <td class="bolder">ลาวทูเดย์</td>
      <td class="bolder"></td>
                      <td class="blue bolder ac">&#8211;</td>
        <td class="blue bolder ac">&#8211;</td>
        <td class="blue bolder ac">&#8211;</td>
                  </tr>
          <tr class="table-subsection">
      <td colspan="99" class="ac bolder">หวยเวียดนาม</td>
    </tr>
        <tr>
      <td class="bolder">ฮานอย H&agrave; Nội</td>
      <td class="bolder"></td>
                      <td class="blue bolder ac">&#8211;</td>
        <td class="blue bolder ac">&#8211;</td>
        <td class="blue bolder ac">&#8211;</td>
                  </tr>
          <tr>
      <td class="bolder">ฮานอย วีไอพี Hanoi Vip</td>
      <td class="bolder"></td>
                      <td class="blue bolder ac">&#8211;</td>
        <td class="blue bolder ac">&#8211;</td>
        <td class="blue bolder ac">&#8211;</td>
                  </tr>
          <tr class="table-subsection">
      <td colspan="99" class="ac bolder">หวยฮานอย แดงดำ</td>
    </tr>
        <tr>
      <td class="bolder">ฮานอย แดง</td>
      <td class="bolder"></td>
                      <td class="blue bolder ac">&#8211;</td>
        <td class="blue bolder ac">&#8211;</td>
        <td class="blue bolder ac">&#8211;</td>
                  </tr>
          <tr>
      <td class="bolder">ฮานอย ดำ</td>
      <td class="bolder"></td>
                      <td class="blue bolder ac">&#8211;</td>
        <td class="blue bolder ac">&#8211;</td>
        <td class="blue bolder ac">&#8211;</td>
                  </tr>
          <tr class="table-subsection">
      <td colspan="99" class="ac bolder">หวยเวียดนาม (ออนไลน์)</td>
    </tr>
        <tr>
      <td class="bolder">เวียดนาม</td>
      <td class="bolder"></td>
                      <td class="blue bolder ac">&#8211;</td>
        <td class="blue bolder ac">&#8211;</td>
        <td class="blue bolder ac">&#8211;</td>
                  </tr>
          <tr>
      <td class="bolder">เวียดนาม VIP</td>
      <td class="bolder"></td>
                      <td class="blue bolder ac">&#8211;</td>
        <td class="blue bolder ac">&#8211;</td>
        <td class="blue bolder ac">&#8211;</td>
                  </tr>
          <tr class="table-subsection">
      <td colspan="99" class="ac bolder">หวยมาเลย์ (Magnum4D)</td>
    </tr>
        <tr>
      <td class="bolder">หวยมาเลย์ วันพุธ</td>
      <td class="bolder"></td>
                      <td class="blue bolder ac">&#8211;</td>
        <td class="blue bolder ac">&#8211;</td>
        <td class="blue bolder ac">&#8211;</td>
                  </tr>
          <tr>
      <td class="bolder">หวยมาเลย์ วันเสาร์</td>
      <td class="bolder"></td>
                      <td class="blue bolder ac">&#8211;</td>
        <td class="blue bolder ac">&#8211;</td>
        <td class="blue bolder ac">&#8211;</td>
                  </tr>
          <tr>
      <td class="bolder">หวยมาเลย์ วันอาทิตย์</td>
      <td class="bolder"></td>
                      <td class="blue bolder ac">&#8211;</td>
        <td class="blue bolder ac">&#8211;</td>
        <td class="blue bolder ac">&#8211;</td>
                  </tr>
          <tr class="table-subsection">
      <td colspan="99" class="ac bolder">หวยหุ้นต่างประเทศ</td>
    </tr>
        <tr>
      <td class="bolder">นิเคอิ รอบเช้า</td>
      <td class="bolder"></td>
                      <td class="blue bolder ac">&#8211;</td>
        <td class="blue bolder ac">&#8211;</td>
        <td class="blue bolder ac">&#8211;</td>
                  </tr>
          <tr>
      <td class="bolder">หุ้นจีน รอบเช้า</td>
      <td class="bolder"></td>
                      <td class="blue bolder ac">&#8211;</td>
        <td class="blue bolder ac">&#8211;</td>
        <td class="blue bolder ac">&#8211;</td>
                  </tr>
          <tr>
      <td class="bolder">ฮั่งเส็ง รอบเช้า</td>
      <td class="bolder"></td>
                      <td class="blue bolder ac">&#8211;</td>
        <td class="blue bolder ac">&#8211;</td>
        <td class="blue bolder ac">&#8211;</td>
                  </tr>
          <tr>
      <td class="bolder">หุ้นไต้หวัน</td>
      <td class="bolder"></td>
                      <td class="blue bolder ac">&#8211;</td>
        <td class="blue bolder ac">&#8211;</td>
        <td class="blue bolder ac">&#8211;</td>
                  </tr>
          <tr>
      <td class="bolder">หุ้นเกาหลี</td>
      <td class="bolder"></td>
                      <td class="blue bolder ac">&#8211;</td>
        <td class="blue bolder ac">&#8211;</td>
        <td class="blue bolder ac">&#8211;</td>
                  </tr>
          <tr>
      <td class="bolder">นิเคอิ รอบบ่าย</td>
      <td class="bolder"></td>
                      <td class="blue bolder ac">&#8211;</td>
        <td class="blue bolder ac">&#8211;</td>
        <td class="blue bolder ac">&#8211;</td>
                  </tr>
          <tr>
      <td class="bolder">หุ้นจีน รอบบ่าย</td>
      <td class="bolder"></td>
                      <td class="blue bolder ac">&#8211;</td>
        <td class="blue bolder ac">&#8211;</td>
        <td class="blue bolder ac">&#8211;</td>
                  </tr>
          <tr>
      <td class="bolder">ฮั่งเส็ง รอบบ่าย</td>
      <td class="bolder"></td>
                      <td class="blue bolder ac">&#8211;</td>
        <td class="blue bolder ac">&#8211;</td>
        <td class="blue bolder ac">&#8211;</td>
                  </tr>
          <tr>
      <td class="bolder">หุ้นสิงคโปร์</td>
      <td class="bolder"></td>
                      <td class="blue bolder ac">&#8211;</td>
        <td class="blue bolder ac">&#8211;</td>
        <td class="blue bolder ac">&#8211;</td>
                  </tr>
          <tr>
      <td class="bolder">หุ้นอินเดีย</td>
      <td class="bolder"></td>
                      <td class="blue bolder ac">&#8211;</td>
        <td class="blue bolder ac">&#8211;</td>
        <td class="blue bolder ac">&#8211;</td>
                  </tr>
          <tr>
      <td class="bolder">หุ้นอียิปต์</td>
      <td class="bolder"></td>
                      <td class="blue bolder ac">&#8211;</td>
        <td class="blue bolder ac">&#8211;</td>
        <td class="blue bolder ac">&#8211;</td>
                  </tr>
          <tr>
      <td class="bolder">หุ้นรัสเซีย</td>
      <td class="bolder"></td>
                      <td class="blue bolder ac">&#8211;</td>
        <td class="blue bolder ac">&#8211;</td>
        <td class="blue bolder ac">&#8211;</td>
                  </tr>
          <tr>
      <td class="bolder">หุ้นอังกฤษ</td>
      <td class="bolder"></td>
                      <td class="blue bolder ac">&#8211;</td>
        <td class="blue bolder ac">&#8211;</td>
        <td class="blue bolder ac">&#8211;</td>
                  </tr>
          <tr>
      <td class="bolder">หุ้นเยอรมัน</td>
      <td class="bolder"></td>
                      <td class="blue bolder ac">&#8211;</td>
        <td class="blue bolder ac">&#8211;</td>
        <td class="blue bolder ac">&#8211;</td>
                  </tr>
          <tr>
      <td class="bolder">หุ้นดาวน์โจน</td>
      <td class="bolder"></td>
                      <td class="blue bolder ac">&#8211;</td>
        <td class="blue bolder ac">&#8211;</td>
        <td class="blue bolder ac">&#8211;</td>
                  </tr>
  </tbody>

                    </table>