<table id="table-stock-results">
                    <thead class="thin-border-bottom">
                        <tr class="bg-black">
                            <th rowspan="2" class="ac">ชนิดหวย</th>
                            <th rowspan="2" class="ac">ชื่องวด</th>
                            <th colspan="3" class="ac">3 ตัวท้าย</th>
                        </tr>
                        <tr>
                        <th class="ac">3 ตัวบน</th>
                        <th class="ac">2 ตัวบน</th>
                        <th class="ac">2 ตัวล่าง</th>
                        </tr>
                    </thead>
                    <tbody>
            <tr class="table-subsection">
      <td colspan="99" class="ac bolder">ซุปเปอร์ยี่กี</td>
    </tr>
        <tr>
      <td class="bolder">หวยยี่กี</td>
      <td class="bolder">จับยี่กี รอบที่ 22</td>
                      <td class="blue bolder ac">537</td>
        <td class="blue bolder ac">37</td>
        <td class="blue bolder ac">64</td>
                  </tr>
          <tr>
      <td class="bolder">หวยยี่กี</td>
      <td class="bolder">จับยี่กี รอบที่ 23</td>
                      <td class="blue bolder ac">464</td>
        <td class="blue bolder ac">64</td>
        <td class="blue bolder ac">29</td>
                  </tr>
          <tr>
      <td class="bolder">หวยยี่กี</td>
      <td class="bolder">จับยี่กี รอบที่ 24</td>
                      <td class="blue bolder ac">815</td>
        <td class="blue bolder ac">15</td>
        <td class="blue bolder ac">19</td>
                  </tr>
          <tr>
      <td class="bolder">หวยยี่กี</td>
      <td class="bolder">จับยี่กี รอบที่ 25</td>
                      <td class="blue bolder ac">807</td>
        <td class="blue bolder ac">07</td>
        <td class="blue bolder ac">33</td>
                  </tr>
          <tr>
      <td class="bolder">หวยยี่กี</td>
      <td class="bolder">จับยี่กี รอบที่ 26</td>
                      <td class="blue bolder ac">212</td>
        <td class="blue bolder ac">12</td>
        <td class="blue bolder ac">43</td>
                  </tr>
          <tr>
      <td class="bolder">หวยยี่กี</td>
      <td class="bolder">จับยี่กี รอบที่ 27</td>
                      <td class="blue bolder ac">517</td>
        <td class="blue bolder ac">17</td>
        <td class="blue bolder ac">80</td>
                  </tr>
          <tr>
      <td class="bolder">หวยยี่กี</td>
      <td class="bolder">จับยี่กี รอบที่ 28</td>
                      <td class="blue bolder ac">846</td>
        <td class="blue bolder ac">46</td>
        <td class="blue bolder ac">26</td>
                  </tr>
          <tr>
      <td class="bolder">หวยยี่กี</td>
      <td class="bolder">จับยี่กี รอบที่ 29</td>
                      <td class="blue bolder ac">123</td>
        <td class="blue bolder ac">23</td>
        <td class="blue bolder ac">02</td>
                  </tr>
          <tr>
      <td class="bolder">หวยยี่กี</td>
      <td class="bolder">จับยี่กี รอบที่ 30</td>
                      <td class="blue bolder ac">517</td>
        <td class="blue bolder ac">17</td>
        <td class="blue bolder ac">70</td>
                  </tr>
          <tr>
      <td class="bolder">หวยยี่กี</td>
      <td class="bolder">จับยี่กี รอบที่ 31</td>
                      <td class="blue bolder ac">422</td>
        <td class="blue bolder ac">22</td>
        <td class="blue bolder ac">87</td>
                  </tr>
          <tr>
      <td class="bolder">หวยยี่กี</td>
      <td class="bolder">จับยี่กี รอบที่ 32</td>
                      <td class="blue bolder ac">531</td>
        <td class="blue bolder ac">31</td>
        <td class="blue bolder ac">99</td>
                  </tr>
          <tr>
      <td class="bolder">หวยยี่กี</td>
      <td class="bolder">จับยี่กี รอบที่ 33</td>
                      <td class="blue bolder ac">522</td>
        <td class="blue bolder ac">22</td>
        <td class="blue bolder ac">53</td>
                  </tr>
          <tr>
      <td class="bolder">หวยยี่กี</td>
      <td class="bolder">จับยี่กี รอบที่ 34</td>
                      <td class="blue bolder ac">284</td>
        <td class="blue bolder ac">84</td>
        <td class="blue bolder ac">43</td>
                  </tr>
          <tr>
      <td class="bolder">หวยยี่กี</td>
      <td class="bolder">จับยี่กี รอบที่ 35</td>
                      <td class="blue bolder ac">035</td>
        <td class="blue bolder ac">35</td>
        <td class="blue bolder ac">83</td>
                  </tr>
          <tr>
      <td class="bolder">หวยยี่กี</td>
      <td class="bolder">จับยี่กี รอบที่ 36</td>
                      <td class="blue bolder ac">064</td>
        <td class="blue bolder ac">64</td>
        <td class="blue bolder ac">83</td>
                  </tr>
          <tr>
      <td class="bolder">หวยยี่กี</td>
      <td class="bolder">จับยี่กี รอบที่ 37</td>
                      <td class="blue bolder ac">752</td>
        <td class="blue bolder ac">52</td>
        <td class="blue bolder ac">44</td>
                  </tr>
          <tr>
      <td class="bolder">หวยยี่กี</td>
      <td class="bolder">จับยี่กี รอบที่ 38</td>
                      <td class="blue bolder ac">699</td>
        <td class="blue bolder ac">99</td>
        <td class="blue bolder ac">16</td>
                  </tr>
          <tr>
      <td class="bolder">หวยยี่กี</td>
      <td class="bolder">จับยี่กี รอบที่ 39</td>
                      <td class="blue bolder ac">681</td>
        <td class="blue bolder ac">81</td>
        <td class="blue bolder ac">20</td>
                  </tr>
          <tr>
      <td class="bolder">หวยยี่กี</td>
      <td class="bolder">จับยี่กี รอบที่ 40</td>
                      <td class="blue bolder ac">007</td>
        <td class="blue bolder ac">07</td>
        <td class="blue bolder ac">21</td>
                  </tr>
          <tr>
      <td class="bolder">หวยยี่กี</td>
      <td class="bolder">จับยี่กี รอบที่ 41</td>
                      <td class="blue bolder ac">306</td>
        <td class="blue bolder ac">06</td>
        <td class="blue bolder ac">48</td>
                  </tr>
          <tr>
      <td class="bolder">หวยยี่กี</td>
      <td class="bolder">จับยี่กี รอบที่ 42</td>
                      <td class="blue bolder ac">011</td>
        <td class="blue bolder ac">11</td>
        <td class="blue bolder ac">40</td>
                  </tr>
          <tr>
      <td class="bolder">หวยยี่กี</td>
      <td class="bolder">จับยี่กี รอบที่ 43</td>
                      <td class="blue bolder ac">391</td>
        <td class="blue bolder ac">91</td>
        <td class="blue bolder ac">58</td>
                  </tr>
          <tr>
      <td class="bolder">หวยยี่กี</td>
      <td class="bolder">จับยี่กี รอบที่ 44</td>
                      <td class="blue bolder ac">643</td>
        <td class="blue bolder ac">43</td>
        <td class="blue bolder ac">97</td>
                  </tr>
          <tr>
      <td class="bolder">หวยยี่กี</td>
      <td class="bolder">จับยี่กี รอบที่ 45</td>
                      <td class="blue bolder ac">864</td>
        <td class="blue bolder ac">64</td>
        <td class="blue bolder ac">27</td>
                  </tr>
          <tr>
      <td class="bolder">หวยยี่กี</td>
      <td class="bolder">จับยี่กี รอบที่ 46</td>
                      <td class="blue bolder ac">744</td>
        <td class="blue bolder ac">44</td>
        <td class="blue bolder ac">97</td>
                  </tr>
          <tr>
      <td class="bolder">หวยยี่กี</td>
      <td class="bolder">จับยี่กี รอบที่ 47</td>
                      <td class="blue bolder ac">932</td>
        <td class="blue bolder ac">32</td>
        <td class="blue bolder ac">04</td>
                  </tr>
          <tr>
      <td class="bolder">หวยยี่กี</td>
      <td class="bolder">จับยี่กี รอบที่ 48</td>
                      <td class="blue bolder ac">460</td>
        <td class="blue bolder ac">60</td>
        <td class="blue bolder ac">22</td>
                  </tr>
          <tr>
      <td class="bolder">หวยยี่กี</td>
      <td class="bolder">จับยี่กี รอบที่ 49</td>
                      <td class="blue bolder ac">644</td>
        <td class="blue bolder ac">44</td>
        <td class="blue bolder ac">25</td>
                  </tr>
          <tr>
      <td class="bolder">หวยยี่กี</td>
      <td class="bolder">จับยี่กี รอบที่ 50</td>
                      <td class="blue bolder ac">431</td>
        <td class="blue bolder ac">31</td>
        <td class="blue bolder ac">84</td>
                  </tr>
          <tr>
      <td class="bolder">หวยยี่กี</td>
      <td class="bolder">จับยี่กี รอบที่ 51</td>
                      <td class="blue bolder ac">769</td>
        <td class="blue bolder ac">69</td>
        <td class="blue bolder ac">84</td>
                  </tr>
          <tr>
      <td class="bolder">หวยยี่กี</td>
      <td class="bolder">จับยี่กี รอบที่ 52</td>
                      <td class="blue bolder ac">398</td>
        <td class="blue bolder ac">98</td>
        <td class="blue bolder ac">50</td>
                  </tr>
          <tr>
      <td class="bolder">หวยยี่กี</td>
      <td class="bolder">จับยี่กี รอบที่ 53</td>
                      <td class="blue bolder ac">378</td>
        <td class="blue bolder ac">78</td>
        <td class="blue bolder ac">36</td>
                  </tr>
          <tr>
      <td class="bolder">หวยยี่กี</td>
      <td class="bolder">จับยี่กี รอบที่ 54</td>
                      <td class="blue bolder ac">420</td>
        <td class="blue bolder ac">20</td>
        <td class="blue bolder ac">65</td>
                  </tr>
          <tr>
      <td class="bolder">หวยยี่กี</td>
      <td class="bolder">จับยี่กี รอบที่ 55</td>
                      <td class="blue bolder ac">194</td>
        <td class="blue bolder ac">94</td>
        <td class="blue bolder ac">66</td>
                  </tr>
          <tr>
      <td class="bolder">หวยยี่กี</td>
      <td class="bolder">จับยี่กี รอบที่ 56</td>
                      <td class="blue bolder ac">642</td>
        <td class="blue bolder ac">42</td>
        <td class="blue bolder ac">99</td>
                  </tr>
          <tr>
      <td class="bolder">หวยยี่กี</td>
      <td class="bolder">จับยี่กี รอบที่ 57</td>
                      <td class="blue bolder ac">357</td>
        <td class="blue bolder ac">57</td>
        <td class="blue bolder ac">08</td>
                  </tr>
          <tr>
      <td class="bolder">หวยยี่กี</td>
      <td class="bolder">จับยี่กี รอบที่ 58</td>
                      <td class="blue bolder ac">120</td>
        <td class="blue bolder ac">20</td>
        <td class="blue bolder ac">25</td>
                  </tr>
          <tr>
      <td class="bolder">หวยยี่กี</td>
      <td class="bolder">จับยี่กี รอบที่ 59</td>
                      <td class="blue bolder ac">457</td>
        <td class="blue bolder ac">57</td>
        <td class="blue bolder ac">10</td>
                  </tr>
          <tr>
      <td class="bolder">หวยยี่กี</td>
      <td class="bolder">จับยี่กี รอบที่ 60</td>
                      <td class="blue bolder ac">432</td>
        <td class="blue bolder ac">32</td>
        <td class="blue bolder ac">46</td>
                  </tr>
          <tr>
      <td class="bolder">หวยยี่กี</td>
      <td class="bolder">จับยี่กี รอบที่ 61</td>
                      <td class="blue bolder ac">620</td>
        <td class="blue bolder ac">20</td>
        <td class="blue bolder ac">04</td>
                  </tr>
          <tr>
      <td class="bolder">หวยยี่กี</td>
      <td class="bolder">จับยี่กี รอบที่ 62</td>
                      <td class="blue bolder ac">867</td>
        <td class="blue bolder ac">67</td>
        <td class="blue bolder ac">02</td>
                  </tr>
          <tr>
      <td class="bolder">หวยยี่กี</td>
      <td class="bolder">จับยี่กี รอบที่ 63</td>
                      <td class="blue bolder ac">347</td>
        <td class="blue bolder ac">47</td>
        <td class="blue bolder ac">94</td>
                  </tr>
          <tr>
      <td class="bolder">หวยยี่กี</td>
      <td class="bolder">จับยี่กี รอบที่ 64</td>
                      <td class="blue bolder ac">226</td>
        <td class="blue bolder ac">26</td>
        <td class="blue bolder ac">50</td>
                  </tr>
          <tr>
      <td class="bolder">หวยยี่กี</td>
      <td class="bolder">จับยี่กี รอบที่ 65</td>
                      <td class="blue bolder ac">747</td>
        <td class="blue bolder ac">47</td>
        <td class="blue bolder ac">57</td>
                  </tr>
          <tr>
      <td class="bolder">หวยยี่กี</td>
      <td class="bolder">จับยี่กี รอบที่ 66</td>
                      <td class="blue bolder ac">445</td>
        <td class="blue bolder ac">45</td>
        <td class="blue bolder ac">91</td>
                  </tr>
          <tr>
      <td class="bolder">หวยยี่กี</td>
      <td class="bolder">จับยี่กี รอบที่ 67</td>
                      <td class="blue bolder ac">640</td>
        <td class="blue bolder ac">40</td>
        <td class="blue bolder ac">07</td>
                  </tr>
          <tr>
      <td class="bolder">หวยยี่กี</td>
      <td class="bolder">จับยี่กี รอบที่ 68</td>
                      <td class="blue bolder ac">999</td>
        <td class="blue bolder ac">99</td>
        <td class="blue bolder ac">56</td>
                  </tr>
          <tr>
      <td class="bolder">หวยยี่กี</td>
      <td class="bolder">จับยี่กี รอบที่ 69</td>
                      <td class="blue bolder ac">082</td>
        <td class="blue bolder ac">82</td>
        <td class="blue bolder ac">69</td>
                  </tr>
          <tr>
      <td class="bolder">หวยยี่กี</td>
      <td class="bolder">จับยี่กี รอบที่ 70</td>
                      <td class="blue bolder ac">633</td>
        <td class="blue bolder ac">33</td>
        <td class="blue bolder ac">57</td>
                  </tr>
          <tr>
      <td class="bolder">หวยยี่กี</td>
      <td class="bolder">จับยี่กี รอบที่ 71</td>
                      <td class="blue bolder ac">723</td>
        <td class="blue bolder ac">23</td>
        <td class="blue bolder ac">07</td>
                  </tr>
          <tr>
      <td class="bolder">หวยยี่กี</td>
      <td class="bolder">จับยี่กี รอบที่ 72</td>
                      <td class="blue bolder ac">216</td>
        <td class="blue bolder ac">16</td>
        <td class="blue bolder ac">58</td>
                  </tr>
          <tr>
      <td class="bolder">หวยยี่กี</td>
      <td class="bolder">จับยี่กี รอบที่ 73</td>
                      <td class="blue bolder ac">822</td>
        <td class="blue bolder ac">22</td>
        <td class="blue bolder ac">50</td>
                  </tr>
          <tr>
      <td class="bolder">หวยยี่กี</td>
      <td class="bolder">จับยี่กี รอบที่ 74</td>
                      <td class="blue bolder ac">579</td>
        <td class="blue bolder ac">79</td>
        <td class="blue bolder ac">28</td>
                  </tr>
          <tr>
      <td class="bolder">หวยยี่กี</td>
      <td class="bolder">จับยี่กี รอบที่ 75</td>
                      <td class="blue bolder ac">084</td>
        <td class="blue bolder ac">84</td>
        <td class="blue bolder ac">10</td>
                  </tr>
          <tr>
      <td class="bolder">หวยยี่กี</td>
      <td class="bolder">จับยี่กี รอบที่ 76</td>
                      <td class="blue bolder ac">880</td>
        <td class="blue bolder ac">80</td>
        <td class="blue bolder ac">33</td>
                  </tr>
          <tr>
      <td class="bolder">หวยยี่กี</td>
      <td class="bolder">จับยี่กี รอบที่ 77</td>
                      <td class="blue bolder ac">003</td>
        <td class="blue bolder ac">03</td>
        <td class="blue bolder ac">10</td>
                  </tr>
          <tr>
      <td class="bolder">หวยยี่กี</td>
      <td class="bolder">จับยี่กี รอบที่ 78</td>
                      <td class="blue bolder ac">673</td>
        <td class="blue bolder ac">73</td>
        <td class="blue bolder ac">51</td>
                  </tr>
          <tr>
      <td class="bolder">หวยยี่กี</td>
      <td class="bolder">จับยี่กี รอบที่ 79</td>
                      <td class="blue bolder ac">395</td>
        <td class="blue bolder ac">95</td>
        <td class="blue bolder ac">95</td>
                  </tr>
          <tr>
      <td class="bolder">หวยยี่กี</td>
      <td class="bolder">จับยี่กี รอบที่ 80</td>
                      <td class="blue bolder ac">776</td>
        <td class="blue bolder ac">76</td>
        <td class="blue bolder ac">27</td>
                  </tr>
          <tr>
      <td class="bolder">หวยยี่กี</td>
      <td class="bolder">จับยี่กี รอบที่ 81</td>
                      <td class="blue bolder ac">458</td>
        <td class="blue bolder ac">58</td>
        <td class="blue bolder ac">01</td>
                  </tr>
          <tr>
      <td class="bolder">หวยยี่กี</td>
      <td class="bolder">จับยี่กี รอบที่ 82</td>
                      <td class="blue bolder ac">624</td>
        <td class="blue bolder ac">24</td>
        <td class="blue bolder ac">22</td>
                  </tr>
          <tr>
      <td class="bolder">หวยยี่กี</td>
      <td class="bolder">จับยี่กี รอบที่ 83</td>
                      <td class="blue bolder ac">866</td>
        <td class="blue bolder ac">66</td>
        <td class="blue bolder ac">66</td>
                  </tr>
          <tr>
      <td class="bolder">หวยยี่กี</td>
      <td class="bolder">จับยี่กี รอบที่ 84</td>
                      <td class="blue bolder ac">845</td>
        <td class="blue bolder ac">45</td>
        <td class="blue bolder ac">17</td>
                  </tr>
          <tr>
      <td class="bolder">หวยยี่กี</td>
      <td class="bolder">จับยี่กี รอบที่ 85</td>
                      <td class="blue bolder ac">043</td>
        <td class="blue bolder ac">43</td>
        <td class="blue bolder ac">97</td>
                  </tr>
          <tr>
      <td class="bolder">หวยยี่กี</td>
      <td class="bolder">จับยี่กี รอบที่ 86</td>
                      <td class="blue bolder ac">108</td>
        <td class="blue bolder ac">08</td>
        <td class="blue bolder ac">26</td>
                  </tr>
          <tr>
      <td class="bolder">หวยยี่กี</td>
      <td class="bolder">จับยี่กี รอบที่ 87</td>
                      <td class="blue bolder ac">743</td>
        <td class="blue bolder ac">43</td>
        <td class="blue bolder ac">87</td>
                  </tr>
          <tr>
      <td class="bolder">หวยยี่กี</td>
      <td class="bolder">จับยี่กี รอบที่ 88</td>
                      <td class="blue bolder ac">855</td>
        <td class="blue bolder ac">55</td>
        <td class="blue bolder ac">84</td>
                  </tr>
          <tr class="table-subsection">
      <td colspan="99" class="ac bolder">หวย ธกส.</td>
    </tr>
        <tr>
      <td class="bolder">หวย ธกส. (BAAC1)</td>
      <td class="bolder"></td>
                      <td class="blue bolder ac">&#8211;</td>
        <td class="blue bolder ac">&#8211;</td>
        <td class="blue bolder ac">&#8211;</td>
                  </tr>
          <tr>
      <td class="bolder">หวย ธกส. (BAAC2)</td>
      <td class="bolder"></td>
                      <td class="blue bolder ac">&#8211;</td>
        <td class="blue bolder ac">&#8211;</td>
        <td class="blue bolder ac">&#8211;</td>
                  </tr>
          <tr class="table-subsection">
      <td colspan="99" class="ac bolder">หวยหุ้นไทย</td>
    </tr>
        <tr>
      <td class="bolder">หวยหุ้นไทย รอบปิดเย็น</td>
      <td class="bolder"></td>
                      <td class="blue bolder ac">&#8211;</td>
        <td class="blue bolder ac">&#8211;</td>
        <td class="blue bolder ac">&#8211;</td>
                  </tr>
          <tr class="table-subsection">
      <td colspan="99" class="ac bolder">หวยลาว</td>
    </tr>
        <tr>
      <td class="bolder">หวยลาว วันจันทร์</td>
      <td class="bolder"></td>
                      <td class="blue bolder ac">&#8211;</td>
        <td class="blue bolder ac">&#8211;</td>
        <td class="blue bolder ac">&#8211;</td>
                  </tr>
          <tr>
      <td class="bolder">หวยลาว วันพุธ</td>
      <td class="bolder"></td>
                      <td class="blue bolder ac">&#8211;</td>
        <td class="blue bolder ac">&#8211;</td>
        <td class="blue bolder ac">&#8211;</td>
                  </tr>
          <tr>
      <td class="bolder">หวยลาว วันพฤหัส</td>
      <td class="bolder"></td>
                      <td class="blue bolder ac">&#8211;</td>
        <td class="blue bolder ac">&#8211;</td>
        <td class="blue bolder ac">&#8211;</td>
                  </tr>
          <tr class="table-subsection">
      <td colspan="99" class="ac bolder">Laostoday</td>
    </tr>
        <tr>
      <td class="bolder">ลาวทูเดย์</td>
      <td class="bolder"></td>
                      <td class="blue bolder ac">&#8211;</td>
        <td class="blue bolder ac">&#8211;</td>
        <td class="blue bolder ac">&#8211;</td>
                  </tr>
          <tr class="table-subsection">
      <td colspan="99" class="ac bolder">หวยเวียดนาม</td>
    </tr>
        <tr>
      <td class="bolder">ฮานอย H&agrave; Nội</td>
      <td class="bolder">งวดวันที่ 11-07-2020</td>
                      <td class="blue bolder ac">116</td>
        <td class="blue bolder ac">16</td>
        <td class="blue bolder ac">57</td>
                  </tr>
          <tr>
      <td class="bolder">ฮานอย วีไอพี Hanoi Vip</td>
      <td class="bolder">งวดวันที่ 11-07-2020</td>
                      <td class="blue bolder ac">496</td>
        <td class="blue bolder ac">96</td>
        <td class="blue bolder ac">48</td>
                  </tr>
          <tr class="table-subsection">
      <td colspan="99" class="ac bolder">หวยฮานอย แดงดำ</td>
    </tr>
        <tr>
      <td class="bolder">ฮานอย แดง</td>
      <td class="bolder">งวดวันที่ 11-07-2020</td>
                      <td class="blue bolder ac">116</td>
        <td class="blue bolder ac">16</td>
        <td class="blue bolder ac">03</td>
                  </tr>
          <tr>
      <td class="bolder">ฮานอย ดำ</td>
      <td class="bolder">งวดวันที่ 11-07-2020</td>
                      <td class="blue bolder ac">237</td>
        <td class="blue bolder ac">37</td>
        <td class="blue bolder ac">57</td>
                  </tr>
          <tr class="table-subsection">
      <td colspan="99" class="ac bolder">หวยเวียดนาม (ออนไลน์)</td>
    </tr>
        <tr>
      <td class="bolder">เวียดนาม</td>
      <td class="bolder">งวดวันที่ 11-07-2020</td>
                      <td class="blue bolder ac">861</td>
        <td class="blue bolder ac">61</td>
        <td class="blue bolder ac">78</td>
                  </tr>
          <tr>
      <td class="bolder">เวียดนาม VIP</td>
      <td class="bolder">งวดวันที่ 11-07-2020</td>
                      <td class="blue bolder ac">245</td>
        <td class="blue bolder ac">45</td>
        <td class="blue bolder ac">58</td>
                  </tr>
          <tr class="table-subsection">
      <td colspan="99" class="ac bolder">หวยมาเลย์ (Magnum4D)</td>
    </tr>
        <tr>
      <td class="bolder">หวยมาเลย์ วันพุธ</td>
      <td class="bolder"></td>
                      <td class="blue bolder ac">&#8211;</td>
        <td class="blue bolder ac">&#8211;</td>
        <td class="blue bolder ac">&#8211;</td>
                  </tr>
          <tr>
      <td class="bolder">หวยมาเลย์ วันเสาร์</td>
      <td class="bolder">งวดวันที่ 11-07-2020</td>
                      <td class="blue bolder ac">306</td>
        <td class="blue bolder ac">06</td>
        <td class="blue bolder ac">25</td>
                  </tr>
          <tr>
      <td class="bolder">หวยมาเลย์ วันอาทิตย์</td>
      <td class="bolder"></td>
                      <td class="blue bolder ac">&#8211;</td>
        <td class="blue bolder ac">&#8211;</td>
        <td class="blue bolder ac">&#8211;</td>
                  </tr>
          <tr class="table-subsection">
      <td colspan="99" class="ac bolder">หวยหุ้นต่างประเทศ</td>
    </tr>
        <tr>
      <td class="bolder">นิเคอิ รอบเช้า</td>
      <td class="bolder"></td>
                      <td class="blue bolder ac">&#8211;</td>
        <td class="blue bolder ac">&#8211;</td>
        <td class="blue bolder ac">&#8211;</td>
                  </tr>
          <tr>
      <td class="bolder">หุ้นจีน รอบเช้า</td>
      <td class="bolder"></td>
                      <td class="blue bolder ac">&#8211;</td>
        <td class="blue bolder ac">&#8211;</td>
        <td class="blue bolder ac">&#8211;</td>
                  </tr>
          <tr>
      <td class="bolder">ฮั่งเส็ง รอบเช้า</td>
      <td class="bolder"></td>
                      <td class="blue bolder ac">&#8211;</td>
        <td class="blue bolder ac">&#8211;</td>
        <td class="blue bolder ac">&#8211;</td>
                  </tr>
          <tr>
      <td class="bolder">หุ้นไต้หวัน</td>
      <td class="bolder"></td>
                      <td class="blue bolder ac">&#8211;</td>
        <td class="blue bolder ac">&#8211;</td>
        <td class="blue bolder ac">&#8211;</td>
                  </tr>
          <tr>
      <td class="bolder">หุ้นเกาหลี</td>
      <td class="bolder"></td>
                      <td class="blue bolder ac">&#8211;</td>
        <td class="blue bolder ac">&#8211;</td>
        <td class="blue bolder ac">&#8211;</td>
                  </tr>
          <tr>
      <td class="bolder">นิเคอิ รอบบ่าย</td>
      <td class="bolder"></td>
                      <td class="blue bolder ac">&#8211;</td>
        <td class="blue bolder ac">&#8211;</td>
        <td class="blue bolder ac">&#8211;</td>
                  </tr>
          <tr>
      <td class="bolder">หุ้นจีน รอบบ่าย</td>
      <td class="bolder"></td>
                      <td class="blue bolder ac">&#8211;</td>
        <td class="blue bolder ac">&#8211;</td>
        <td class="blue bolder ac">&#8211;</td>
                  </tr>
          <tr>
      <td class="bolder">ฮั่งเส็ง รอบบ่าย</td>
      <td class="bolder"></td>
                      <td class="blue bolder ac">&#8211;</td>
        <td class="blue bolder ac">&#8211;</td>
        <td class="blue bolder ac">&#8211;</td>
                  </tr>
          <tr>
      <td class="bolder">หุ้นสิงคโปร์</td>
      <td class="bolder"></td>
                      <td class="blue bolder ac">&#8211;</td>
        <td class="blue bolder ac">&#8211;</td>
        <td class="blue bolder ac">&#8211;</td>
                  </tr>
          <tr>
      <td class="bolder">หุ้นอินเดีย</td>
      <td class="bolder"></td>
                      <td class="blue bolder ac">&#8211;</td>
        <td class="blue bolder ac">&#8211;</td>
        <td class="blue bolder ac">&#8211;</td>
                  </tr>
          <tr>
      <td class="bolder">หุ้นอียิปต์</td>
      <td class="bolder"></td>
                      <td class="blue bolder ac">&#8211;</td>
        <td class="blue bolder ac">&#8211;</td>
        <td class="blue bolder ac">&#8211;</td>
                  </tr>
          <tr>
      <td class="bolder">หุ้นรัสเซีย</td>
      <td class="bolder"></td>
                      <td class="blue bolder ac">&#8211;</td>
        <td class="blue bolder ac">&#8211;</td>
        <td class="blue bolder ac">&#8211;</td>
                  </tr>
          <tr>
      <td class="bolder">หุ้นอังกฤษ</td>
      <td class="bolder"></td>
                      <td class="blue bolder ac">&#8211;</td>
        <td class="blue bolder ac">&#8211;</td>
        <td class="blue bolder ac">&#8211;</td>
                  </tr>
          <tr>
      <td class="bolder">หุ้นเยอรมัน</td>
      <td class="bolder"></td>
                      <td class="blue bolder ac">&#8211;</td>
        <td class="blue bolder ac">&#8211;</td>
        <td class="blue bolder ac">&#8211;</td>
                  </tr>
          <tr>
      <td class="bolder">หุ้นดาวน์โจน</td>
      <td class="bolder"></td>
                      <td class="blue bolder ac">&#8211;</td>
        <td class="blue bolder ac">&#8211;</td>
        <td class="blue bolder ac">&#8211;</td>
                  </tr>
  </tbody>

                    </table>