<table id="table-stock-results">
                    <thead class="thin-border-bottom">
                        <tr class="bg-black">
                            <th rowspan="2" class="ac">ชนิดหวย</th>
                            <th rowspan="2" class="ac">ชื่องวด</th>
                            <th colspan="3" class="ac">3 ตัวท้าย</th>
                        </tr>
                        <tr>
                        <th class="ac">3 ตัวบน</th>
                        <th class="ac">2 ตัวบน</th>
                        <th class="ac">2 ตัวล่าง</th>
                        </tr>
                    </thead>
                    <tbody>
            <tr class="table-subsection">
      <td colspan="99" class="ac bolder">ซุปเปอร์ยี่กี</td>
    </tr>
        <tr>
      <td class="bolder">หวยยี่กี</td>
      <td class="bolder">จับยี่กี รอบที่ 1</td>
                      <td class="blue bolder ac">697</td>
        <td class="blue bolder ac">97</td>
        <td class="blue bolder ac">50</td>
                  </tr>
          <tr>
      <td class="bolder">หวยยี่กี</td>
      <td class="bolder">จับยี่กี รอบที่ 2</td>
                      <td class="blue bolder ac">445</td>
        <td class="blue bolder ac">45</td>
        <td class="blue bolder ac">26</td>
                  </tr>
          <tr>
      <td class="bolder">หวยยี่กี</td>
      <td class="bolder">จับยี่กี รอบที่ 3</td>
                      <td class="blue bolder ac">942</td>
        <td class="blue bolder ac">42</td>
        <td class="blue bolder ac">27</td>
                  </tr>
          <tr>
      <td class="bolder">หวยยี่กี</td>
      <td class="bolder">จับยี่กี รอบที่ 4</td>
                      <td class="blue bolder ac">712</td>
        <td class="blue bolder ac">12</td>
        <td class="blue bolder ac">68</td>
                  </tr>
          <tr>
      <td class="bolder">หวยยี่กี</td>
      <td class="bolder">จับยี่กี รอบที่ 5</td>
                      <td class="blue bolder ac">382</td>
        <td class="blue bolder ac">82</td>
        <td class="blue bolder ac">79</td>
                  </tr>
          <tr>
      <td class="bolder">หวยยี่กี</td>
      <td class="bolder">จับยี่กี รอบที่ 6</td>
                      <td class="blue bolder ac">028</td>
        <td class="blue bolder ac">28</td>
        <td class="blue bolder ac">49</td>
                  </tr>
          <tr>
      <td class="bolder">หวยยี่กี</td>
      <td class="bolder">จับยี่กี รอบที่ 7</td>
                      <td class="blue bolder ac">409</td>
        <td class="blue bolder ac">09</td>
        <td class="blue bolder ac">18</td>
                  </tr>
          <tr>
      <td class="bolder">หวยยี่กี</td>
      <td class="bolder">จับยี่กี รอบที่ 8</td>
                      <td class="blue bolder ac">714</td>
        <td class="blue bolder ac">14</td>
        <td class="blue bolder ac">99</td>
                  </tr>
          <tr>
      <td class="bolder">หวยยี่กี</td>
      <td class="bolder">จับยี่กี รอบที่ 9</td>
                      <td class="blue bolder ac">467</td>
        <td class="blue bolder ac">67</td>
        <td class="blue bolder ac">35</td>
                  </tr>
          <tr>
      <td class="bolder">หวยยี่กี</td>
      <td class="bolder">จับยี่กี รอบที่ 10</td>
                      <td class="blue bolder ac">524</td>
        <td class="blue bolder ac">24</td>
        <td class="blue bolder ac">92</td>
                  </tr>
          <tr>
      <td class="bolder">หวยยี่กี</td>
      <td class="bolder">จับยี่กี รอบที่ 11</td>
                      <td class="blue bolder ac">301</td>
        <td class="blue bolder ac">01</td>
        <td class="blue bolder ac">16</td>
                  </tr>
          <tr>
      <td class="bolder">หวยยี่กี</td>
      <td class="bolder">จับยี่กี รอบที่ 12</td>
                      <td class="blue bolder ac">350</td>
        <td class="blue bolder ac">50</td>
        <td class="blue bolder ac">79</td>
                  </tr>
          <tr>
      <td class="bolder">หวยยี่กี</td>
      <td class="bolder">จับยี่กี รอบที่ 13</td>
                      <td class="blue bolder ac">617</td>
        <td class="blue bolder ac">17</td>
        <td class="blue bolder ac">42</td>
                  </tr>
          <tr>
      <td class="bolder">หวยยี่กี</td>
      <td class="bolder">จับยี่กี รอบที่ 14</td>
                      <td class="blue bolder ac">238</td>
        <td class="blue bolder ac">38</td>
        <td class="blue bolder ac">49</td>
                  </tr>
          <tr>
      <td class="bolder">หวยยี่กี</td>
      <td class="bolder">จับยี่กี รอบที่ 15</td>
                      <td class="blue bolder ac">119</td>
        <td class="blue bolder ac">19</td>
        <td class="blue bolder ac">52</td>
                  </tr>
          <tr>
      <td class="bolder">หวยยี่กี</td>
      <td class="bolder">จับยี่กี รอบที่ 16</td>
                      <td class="blue bolder ac">582</td>
        <td class="blue bolder ac">82</td>
        <td class="blue bolder ac">35</td>
                  </tr>
          <tr>
      <td class="bolder">หวยยี่กี</td>
      <td class="bolder">จับยี่กี รอบที่ 17</td>
                      <td class="blue bolder ac">534</td>
        <td class="blue bolder ac">34</td>
        <td class="blue bolder ac">34</td>
                  </tr>
          <tr>
      <td class="bolder">หวยยี่กี</td>
      <td class="bolder">จับยี่กี รอบที่ 18</td>
                      <td class="blue bolder ac">999</td>
        <td class="blue bolder ac">99</td>
        <td class="blue bolder ac">66</td>
                  </tr>
          <tr>
      <td class="bolder">หวยยี่กี</td>
      <td class="bolder">จับยี่กี รอบที่ 19</td>
                      <td class="blue bolder ac">228</td>
        <td class="blue bolder ac">28</td>
        <td class="blue bolder ac">98</td>
                  </tr>
          <tr>
      <td class="bolder">หวยยี่กี</td>
      <td class="bolder">จับยี่กี รอบที่ 20</td>
                      <td class="blue bolder ac">720</td>
        <td class="blue bolder ac">20</td>
        <td class="blue bolder ac">98</td>
                  </tr>
          <tr>
      <td class="bolder">หวยยี่กี</td>
      <td class="bolder">จับยี่กี รอบที่ 21</td>
                      <td class="blue bolder ac">139</td>
        <td class="blue bolder ac">39</td>
        <td class="blue bolder ac">63</td>
                  </tr>
          <tr>
      <td class="bolder">หวยยี่กี</td>
      <td class="bolder">จับยี่กี รอบที่ 22</td>
                      <td class="blue bolder ac">138</td>
        <td class="blue bolder ac">38</td>
        <td class="blue bolder ac">09</td>
                  </tr>
          <tr>
      <td class="bolder">หวยยี่กี</td>
      <td class="bolder">จับยี่กี รอบที่ 23</td>
                      <td class="blue bolder ac">147</td>
        <td class="blue bolder ac">47</td>
        <td class="blue bolder ac">70</td>
                  </tr>
          <tr>
      <td class="bolder">หวยยี่กี</td>
      <td class="bolder">จับยี่กี รอบที่ 24</td>
                      <td class="blue bolder ac">082</td>
        <td class="blue bolder ac">82</td>
        <td class="blue bolder ac">08</td>
                  </tr>
          <tr>
      <td class="bolder">หวยยี่กี</td>
      <td class="bolder">จับยี่กี รอบที่ 25</td>
                      <td class="blue bolder ac">884</td>
        <td class="blue bolder ac">84</td>
        <td class="blue bolder ac">45</td>
                  </tr>
          <tr>
      <td class="bolder">หวยยี่กี</td>
      <td class="bolder">จับยี่กี รอบที่ 26</td>
                      <td class="blue bolder ac">330</td>
        <td class="blue bolder ac">30</td>
        <td class="blue bolder ac">68</td>
                  </tr>
          <tr>
      <td class="bolder">หวยยี่กี</td>
      <td class="bolder">จับยี่กี รอบที่ 27</td>
                      <td class="blue bolder ac">029</td>
        <td class="blue bolder ac">29</td>
        <td class="blue bolder ac">24</td>
                  </tr>
          <tr>
      <td class="bolder">หวยยี่กี</td>
      <td class="bolder">จับยี่กี รอบที่ 28</td>
                      <td class="blue bolder ac">745</td>
        <td class="blue bolder ac">45</td>
        <td class="blue bolder ac">04</td>
                  </tr>
          <tr>
      <td class="bolder">หวยยี่กี</td>
      <td class="bolder">จับยี่กี รอบที่ 29</td>
                      <td class="blue bolder ac">805</td>
        <td class="blue bolder ac">05</td>
        <td class="blue bolder ac">20</td>
                  </tr>
          <tr>
      <td class="bolder">หวยยี่กี</td>
      <td class="bolder">จับยี่กี รอบที่ 30</td>
                      <td class="blue bolder ac">170</td>
        <td class="blue bolder ac">70</td>
        <td class="blue bolder ac">70</td>
                  </tr>
          <tr>
      <td class="bolder">หวยยี่กี</td>
      <td class="bolder">จับยี่กี รอบที่ 31</td>
                      <td class="blue bolder ac">694</td>
        <td class="blue bolder ac">94</td>
        <td class="blue bolder ac">47</td>
                  </tr>
          <tr>
      <td class="bolder">หวยยี่กี</td>
      <td class="bolder">จับยี่กี รอบที่ 32</td>
                      <td class="blue bolder ac">604</td>
        <td class="blue bolder ac">04</td>
        <td class="blue bolder ac">19</td>
                  </tr>
          <tr>
      <td class="bolder">หวยยี่กี</td>
      <td class="bolder">จับยี่กี รอบที่ 33</td>
                      <td class="blue bolder ac">590</td>
        <td class="blue bolder ac">90</td>
        <td class="blue bolder ac">95</td>
                  </tr>
          <tr>
      <td class="bolder">หวยยี่กี</td>
      <td class="bolder">จับยี่กี รอบที่ 34</td>
                      <td class="blue bolder ac">912</td>
        <td class="blue bolder ac">12</td>
        <td class="blue bolder ac">74</td>
                  </tr>
          <tr>
      <td class="bolder">หวยยี่กี</td>
      <td class="bolder">จับยี่กี รอบที่ 35</td>
                      <td class="blue bolder ac">373</td>
        <td class="blue bolder ac">73</td>
        <td class="blue bolder ac">71</td>
                  </tr>
          <tr>
      <td class="bolder">หวยยี่กี</td>
      <td class="bolder">จับยี่กี รอบที่ 36</td>
                      <td class="blue bolder ac">145</td>
        <td class="blue bolder ac">45</td>
        <td class="blue bolder ac">38</td>
                  </tr>
          <tr>
      <td class="bolder">หวยยี่กี</td>
      <td class="bolder">จับยี่กี รอบที่ 37</td>
                      <td class="blue bolder ac">644</td>
        <td class="blue bolder ac">44</td>
        <td class="blue bolder ac">02</td>
                  </tr>
          <tr>
      <td class="bolder">หวยยี่กี</td>
      <td class="bolder">จับยี่กี รอบที่ 38</td>
                      <td class="blue bolder ac">834</td>
        <td class="blue bolder ac">34</td>
        <td class="blue bolder ac">48</td>
                  </tr>
          <tr>
      <td class="bolder">หวยยี่กี</td>
      <td class="bolder">จับยี่กี รอบที่ 39</td>
                      <td class="blue bolder ac">411</td>
        <td class="blue bolder ac">11</td>
        <td class="blue bolder ac">05</td>
                  </tr>
          <tr>
      <td class="bolder">หวยยี่กี</td>
      <td class="bolder">จับยี่กี รอบที่ 40</td>
                      <td class="blue bolder ac">716</td>
        <td class="blue bolder ac">16</td>
        <td class="blue bolder ac">73</td>
                  </tr>
          <tr>
      <td class="bolder">หวยยี่กี</td>
      <td class="bolder">จับยี่กี รอบที่ 41</td>
                      <td class="blue bolder ac">881</td>
        <td class="blue bolder ac">81</td>
        <td class="blue bolder ac">51</td>
                  </tr>
          <tr>
      <td class="bolder">หวยยี่กี</td>
      <td class="bolder">จับยี่กี รอบที่ 42</td>
                      <td class="blue bolder ac">910</td>
        <td class="blue bolder ac">10</td>
        <td class="blue bolder ac">03</td>
                  </tr>
          <tr>
      <td class="bolder">หวยยี่กี</td>
      <td class="bolder">จับยี่กี รอบที่ 43</td>
                      <td class="blue bolder ac">099</td>
        <td class="blue bolder ac">99</td>
        <td class="blue bolder ac">34</td>
                  </tr>
          <tr>
      <td class="bolder">หวยยี่กี</td>
      <td class="bolder">จับยี่กี รอบที่ 44</td>
                      <td class="blue bolder ac">675</td>
        <td class="blue bolder ac">75</td>
        <td class="blue bolder ac">14</td>
                  </tr>
          <tr>
      <td class="bolder">หวยยี่กี</td>
      <td class="bolder">จับยี่กี รอบที่ 45</td>
                      <td class="blue bolder ac">931</td>
        <td class="blue bolder ac">31</td>
        <td class="blue bolder ac">87</td>
                  </tr>
          <tr>
      <td class="bolder">หวยยี่กี</td>
      <td class="bolder">จับยี่กี รอบที่ 46</td>
                      <td class="blue bolder ac">464</td>
        <td class="blue bolder ac">64</td>
        <td class="blue bolder ac">73</td>
                  </tr>
          <tr>
      <td class="bolder">หวยยี่กี</td>
      <td class="bolder">จับยี่กี รอบที่ 47</td>
                      <td class="blue bolder ac">265</td>
        <td class="blue bolder ac">65</td>
        <td class="blue bolder ac">26</td>
                  </tr>
          <tr>
      <td class="bolder">หวยยี่กี</td>
      <td class="bolder">จับยี่กี รอบที่ 48</td>
                      <td class="blue bolder ac">322</td>
        <td class="blue bolder ac">22</td>
        <td class="blue bolder ac">61</td>
                  </tr>
          <tr>
      <td class="bolder">หวยยี่กี</td>
      <td class="bolder">จับยี่กี รอบที่ 49</td>
                      <td class="blue bolder ac">383</td>
        <td class="blue bolder ac">83</td>
        <td class="blue bolder ac">55</td>
                  </tr>
          <tr>
      <td class="bolder">หวยยี่กี</td>
      <td class="bolder">จับยี่กี รอบที่ 50</td>
                      <td class="blue bolder ac">546</td>
        <td class="blue bolder ac">46</td>
        <td class="blue bolder ac">10</td>
                  </tr>
          <tr>
      <td class="bolder">หวยยี่กี</td>
      <td class="bolder">จับยี่กี รอบที่ 51</td>
                      <td class="blue bolder ac">341</td>
        <td class="blue bolder ac">41</td>
        <td class="blue bolder ac">37</td>
                  </tr>
          <tr>
      <td class="bolder">หวยยี่กี</td>
      <td class="bolder">จับยี่กี รอบที่ 52</td>
                      <td class="blue bolder ac">437</td>
        <td class="blue bolder ac">37</td>
        <td class="blue bolder ac">16</td>
                  </tr>
          <tr>
      <td class="bolder">หวยยี่กี</td>
      <td class="bolder">จับยี่กี รอบที่ 53</td>
                      <td class="blue bolder ac">082</td>
        <td class="blue bolder ac">82</td>
        <td class="blue bolder ac">93</td>
                  </tr>
          <tr>
      <td class="bolder">หวยยี่กี</td>
      <td class="bolder">จับยี่กี รอบที่ 54</td>
                      <td class="blue bolder ac">584</td>
        <td class="blue bolder ac">84</td>
        <td class="blue bolder ac">98</td>
                  </tr>
          <tr>
      <td class="bolder">หวยยี่กี</td>
      <td class="bolder">จับยี่กี รอบที่ 55</td>
                      <td class="blue bolder ac">252</td>
        <td class="blue bolder ac">52</td>
        <td class="blue bolder ac">08</td>
                  </tr>
          <tr>
      <td class="bolder">หวยยี่กี</td>
      <td class="bolder">จับยี่กี รอบที่ 56</td>
                      <td class="blue bolder ac">680</td>
        <td class="blue bolder ac">80</td>
        <td class="blue bolder ac">45</td>
                  </tr>
          <tr>
      <td class="bolder">หวยยี่กี</td>
      <td class="bolder">จับยี่กี รอบที่ 57</td>
                      <td class="blue bolder ac">915</td>
        <td class="blue bolder ac">15</td>
        <td class="blue bolder ac">29</td>
                  </tr>
          <tr>
      <td class="bolder">หวยยี่กี</td>
      <td class="bolder">จับยี่กี รอบที่ 58</td>
                      <td class="blue bolder ac">380</td>
        <td class="blue bolder ac">80</td>
        <td class="blue bolder ac">53</td>
                  </tr>
          <tr>
      <td class="bolder">หวยยี่กี</td>
      <td class="bolder">จับยี่กี รอบที่ 59</td>
                      <td class="blue bolder ac">373</td>
        <td class="blue bolder ac">73</td>
        <td class="blue bolder ac">88</td>
                  </tr>
          <tr>
      <td class="bolder">หวยยี่กี</td>
      <td class="bolder">จับยี่กี รอบที่ 60</td>
                      <td class="blue bolder ac">836</td>
        <td class="blue bolder ac">36</td>
        <td class="blue bolder ac">82</td>
                  </tr>
          <tr>
      <td class="bolder">หวยยี่กี</td>
      <td class="bolder">จับยี่กี รอบที่ 61</td>
                      <td class="blue bolder ac">888</td>
        <td class="blue bolder ac">88</td>
        <td class="blue bolder ac">72</td>
                  </tr>
          <tr>
      <td class="bolder">หวยยี่กี</td>
      <td class="bolder">จับยี่กี รอบที่ 62</td>
                      <td class="blue bolder ac">035</td>
        <td class="blue bolder ac">35</td>
        <td class="blue bolder ac">31</td>
                  </tr>
          <tr>
      <td class="bolder">หวยยี่กี</td>
      <td class="bolder">จับยี่กี รอบที่ 63</td>
                      <td class="blue bolder ac">732</td>
        <td class="blue bolder ac">32</td>
        <td class="blue bolder ac">73</td>
                  </tr>
          <tr>
      <td class="bolder">หวยยี่กี</td>
      <td class="bolder">จับยี่กี รอบที่ 64</td>
                      <td class="blue bolder ac">156</td>
        <td class="blue bolder ac">56</td>
        <td class="blue bolder ac">82</td>
                  </tr>
          <tr>
      <td class="bolder">หวยยี่กี</td>
      <td class="bolder">จับยี่กี รอบที่ 65</td>
                      <td class="blue bolder ac">177</td>
        <td class="blue bolder ac">77</td>
        <td class="blue bolder ac">36</td>
                  </tr>
          <tr>
      <td class="bolder">หวยยี่กี</td>
      <td class="bolder">จับยี่กี รอบที่ 66</td>
                      <td class="blue bolder ac">487</td>
        <td class="blue bolder ac">87</td>
        <td class="blue bolder ac">85</td>
                  </tr>
          <tr>
      <td class="bolder">หวยยี่กี</td>
      <td class="bolder">จับยี่กี รอบที่ 67</td>
                      <td class="blue bolder ac">255</td>
        <td class="blue bolder ac">55</td>
        <td class="blue bolder ac">91</td>
                  </tr>
          <tr>
      <td class="bolder">หวยยี่กี</td>
      <td class="bolder">จับยี่กี รอบที่ 68</td>
                      <td class="blue bolder ac">167</td>
        <td class="blue bolder ac">67</td>
        <td class="blue bolder ac">61</td>
                  </tr>
          <tr>
      <td class="bolder">หวยยี่กี</td>
      <td class="bolder">จับยี่กี รอบที่ 69</td>
                      <td class="blue bolder ac">410</td>
        <td class="blue bolder ac">10</td>
        <td class="blue bolder ac">83</td>
                  </tr>
          <tr>
      <td class="bolder">หวยยี่กี</td>
      <td class="bolder">จับยี่กี รอบที่ 70</td>
                      <td class="blue bolder ac">742</td>
        <td class="blue bolder ac">42</td>
        <td class="blue bolder ac">93</td>
                  </tr>
          <tr>
      <td class="bolder">หวยยี่กี</td>
      <td class="bolder">จับยี่กี รอบที่ 71</td>
                      <td class="blue bolder ac">964</td>
        <td class="blue bolder ac">64</td>
        <td class="blue bolder ac">19</td>
                  </tr>
          <tr>
      <td class="bolder">หวยยี่กี</td>
      <td class="bolder">จับยี่กี รอบที่ 72</td>
                      <td class="blue bolder ac">918</td>
        <td class="blue bolder ac">18</td>
        <td class="blue bolder ac">44</td>
                  </tr>
          <tr>
      <td class="bolder">หวยยี่กี</td>
      <td class="bolder">จับยี่กี รอบที่ 73</td>
                      <td class="blue bolder ac">717</td>
        <td class="blue bolder ac">17</td>
        <td class="blue bolder ac">24</td>
                  </tr>
          <tr>
      <td class="bolder">หวยยี่กี</td>
      <td class="bolder">จับยี่กี รอบที่ 74</td>
                      <td class="blue bolder ac">238</td>
        <td class="blue bolder ac">38</td>
        <td class="blue bolder ac">28</td>
                  </tr>
          <tr>
      <td class="bolder">หวยยี่กี</td>
      <td class="bolder">จับยี่กี รอบที่ 75</td>
                      <td class="blue bolder ac">104</td>
        <td class="blue bolder ac">04</td>
        <td class="blue bolder ac">47</td>
                  </tr>
          <tr>
      <td class="bolder">หวยยี่กี</td>
      <td class="bolder">จับยี่กี รอบที่ 76</td>
                      <td class="blue bolder ac">760</td>
        <td class="blue bolder ac">60</td>
        <td class="blue bolder ac">80</td>
                  </tr>
          <tr>
      <td class="bolder">หวยยี่กี</td>
      <td class="bolder">จับยี่กี รอบที่ 77</td>
                      <td class="blue bolder ac">757</td>
        <td class="blue bolder ac">57</td>
        <td class="blue bolder ac">51</td>
                  </tr>
          <tr>
      <td class="bolder">หวยยี่กี</td>
      <td class="bolder">จับยี่กี รอบที่ 78</td>
                      <td class="blue bolder ac">715</td>
        <td class="blue bolder ac">15</td>
        <td class="blue bolder ac">59</td>
                  </tr>
          <tr>
      <td class="bolder">หวยยี่กี</td>
      <td class="bolder">จับยี่กี รอบที่ 79</td>
                      <td class="blue bolder ac">018</td>
        <td class="blue bolder ac">18</td>
        <td class="blue bolder ac">03</td>
                  </tr>
          <tr>
      <td class="bolder">หวยยี่กี</td>
      <td class="bolder">จับยี่กี รอบที่ 80</td>
                      <td class="blue bolder ac">514</td>
        <td class="blue bolder ac">14</td>
        <td class="blue bolder ac">28</td>
                  </tr>
          <tr>
      <td class="bolder">หวยยี่กี</td>
      <td class="bolder">จับยี่กี รอบที่ 81</td>
                      <td class="blue bolder ac">386</td>
        <td class="blue bolder ac">86</td>
        <td class="blue bolder ac">82</td>
                  </tr>
          <tr>
      <td class="bolder">หวยยี่กี</td>
      <td class="bolder">จับยี่กี รอบที่ 82</td>
                      <td class="blue bolder ac">711</td>
        <td class="blue bolder ac">11</td>
        <td class="blue bolder ac">59</td>
                  </tr>
          <tr>
      <td class="bolder">หวยยี่กี</td>
      <td class="bolder">จับยี่กี รอบที่ 83</td>
                      <td class="blue bolder ac">666</td>
        <td class="blue bolder ac">66</td>
        <td class="blue bolder ac">37</td>
                  </tr>
          <tr>
      <td class="bolder">หวยยี่กี</td>
      <td class="bolder">จับยี่กี รอบที่ 84</td>
                      <td class="blue bolder ac">223</td>
        <td class="blue bolder ac">23</td>
        <td class="blue bolder ac">52</td>
                  </tr>
          <tr>
      <td class="bolder">หวยยี่กี</td>
      <td class="bolder">จับยี่กี รอบที่ 85</td>
                      <td class="blue bolder ac">291</td>
        <td class="blue bolder ac">91</td>
        <td class="blue bolder ac">68</td>
                  </tr>
          <tr>
      <td class="bolder">หวยยี่กี</td>
      <td class="bolder">จับยี่กี รอบที่ 86</td>
                      <td class="blue bolder ac">939</td>
        <td class="blue bolder ac">39</td>
        <td class="blue bolder ac">79</td>
                  </tr>
          <tr>
      <td class="bolder">หวยยี่กี</td>
      <td class="bolder">จับยี่กี รอบที่ 87</td>
                      <td class="blue bolder ac">496</td>
        <td class="blue bolder ac">96</td>
        <td class="blue bolder ac">80</td>
                  </tr>
          <tr>
      <td class="bolder">หวยยี่กี</td>
      <td class="bolder">จับยี่กี รอบที่ 88</td>
                      <td class="blue bolder ac">010</td>
        <td class="blue bolder ac">10</td>
        <td class="blue bolder ac">71</td>
                  </tr>
          <tr class="table-subsection">
      <td colspan="99" class="ac bolder">หวย ธกส.</td>
    </tr>
        <tr>
      <td class="bolder">หวย ธกส. (BAAC1)</td>
      <td class="bolder"></td>
                      <td class="blue bolder ac">&#8211;</td>
        <td class="blue bolder ac">&#8211;</td>
        <td class="blue bolder ac">&#8211;</td>
                  </tr>
          <tr>
      <td class="bolder">หวย ธกส. (BAAC2)</td>
      <td class="bolder"></td>
                      <td class="blue bolder ac">&#8211;</td>
        <td class="blue bolder ac">&#8211;</td>
        <td class="blue bolder ac">&#8211;</td>
                  </tr>
          <tr class="table-subsection">
      <td colspan="99" class="ac bolder">หวยหุ้นไทย</td>
    </tr>
        <tr>
      <td class="bolder">หวยหุ้นไทย รอบปิดเย็น</td>
      <td class="bolder">งวดวันที่ 26-10-2020</td>
                      <td class="blue bolder ac">597</td>
        <td class="blue bolder ac">97</td>
        <td class="blue bolder ac">64</td>
                  </tr>
          <tr class="table-subsection">
      <td colspan="99" class="ac bolder">หวยลาว</td>
    </tr>
        <tr>
      <td class="bolder">หวยลาว วันจันทร์</td>
      <td class="bolder">งวดวันที่ 26-10-2020</td>
                      <td class="blue bolder ac">341</td>
        <td class="blue bolder ac">41</td>
        <td class="blue bolder ac">63</td>
                  </tr>
          <tr>
      <td class="bolder">หวยลาว วันพุธ</td>
      <td class="bolder"></td>
                      <td class="blue bolder ac">&#8211;</td>
        <td class="blue bolder ac">&#8211;</td>
        <td class="blue bolder ac">&#8211;</td>
                  </tr>
          <tr>
      <td class="bolder">หวยลาว วันพฤหัส</td>
      <td class="bolder"></td>
                      <td class="blue bolder ac">&#8211;</td>
        <td class="blue bolder ac">&#8211;</td>
        <td class="blue bolder ac">&#8211;</td>
                  </tr>
          <tr class="table-subsection">
      <td colspan="99" class="ac bolder">Laostoday</td>
    </tr>
        <tr>
      <td class="bolder">ลาวทูเดย์</td>
      <td class="bolder"></td>
                      <td class="blue bolder ac">&#8211;</td>
        <td class="blue bolder ac">&#8211;</td>
        <td class="blue bolder ac">&#8211;</td>
                  </tr>
          <tr class="table-subsection">
      <td colspan="99" class="ac bolder">หวยเวียดนาม</td>
    </tr>
        <tr>
      <td class="bolder">ฮานอย H&agrave; Nội</td>
      <td class="bolder">งวดวันที่ 26-10-2020</td>
                      <td class="blue bolder ac">946</td>
        <td class="blue bolder ac">46</td>
        <td class="blue bolder ac">34</td>
                  </tr>
          <tr>
      <td class="bolder">ฮานอย วีไอพี Hanoi Vip</td>
      <td class="bolder">งวดวันที่ 26-10-2020</td>
                      <td class="blue bolder ac">025</td>
        <td class="blue bolder ac">25</td>
        <td class="blue bolder ac">87</td>
                  </tr>
          <tr class="table-subsection">
      <td colspan="99" class="ac bolder">หวยฮานอย แดงดำ</td>
    </tr>
        <tr>
      <td class="bolder">ฮานอย แดง</td>
      <td class="bolder">งวดวันที่ 26-10-2020</td>
                      <td class="blue bolder ac">946</td>
        <td class="blue bolder ac">46</td>
        <td class="blue bolder ac">77</td>
                  </tr>
          <tr>
      <td class="bolder">ฮานอย ดำ</td>
      <td class="bolder">งวดวันที่ 26-10-2020</td>
                      <td class="blue bolder ac">900</td>
        <td class="blue bolder ac">00</td>
        <td class="blue bolder ac">34</td>
                  </tr>
          <tr class="table-subsection">
      <td colspan="99" class="ac bolder">หวยเวียดนาม (ออนไลน์)</td>
    </tr>
        <tr>
      <td class="bolder">เวียดนาม</td>
      <td class="bolder">งวดวันที่ 26-10-2020</td>
                      <td class="blue bolder ac">531</td>
        <td class="blue bolder ac">31</td>
        <td class="blue bolder ac">94</td>
                  </tr>
          <tr>
      <td class="bolder">เวียดนาม VIP</td>
      <td class="bolder">งวดวันที่ 26-10-2020</td>
                      <td class="blue bolder ac">429</td>
        <td class="blue bolder ac">29</td>
        <td class="blue bolder ac">80</td>
                  </tr>
          <tr class="table-subsection">
      <td colspan="99" class="ac bolder">หวยมาเลย์ (Magnum4D)</td>
    </tr>
        <tr>
      <td class="bolder">หวยมาเลย์ วันพุธ</td>
      <td class="bolder"></td>
                      <td class="blue bolder ac">&#8211;</td>
        <td class="blue bolder ac">&#8211;</td>
        <td class="blue bolder ac">&#8211;</td>
                  </tr>
          <tr>
      <td class="bolder">หวยมาเลย์ วันเสาร์</td>
      <td class="bolder"></td>
                      <td class="blue bolder ac">&#8211;</td>
        <td class="blue bolder ac">&#8211;</td>
        <td class="blue bolder ac">&#8211;</td>
                  </tr>
          <tr>
      <td class="bolder">หวยมาเลย์ วันอาทิตย์</td>
      <td class="bolder"></td>
                      <td class="blue bolder ac">&#8211;</td>
        <td class="blue bolder ac">&#8211;</td>
        <td class="blue bolder ac">&#8211;</td>
                  </tr>
          <tr class="table-subsection">
      <td colspan="99" class="ac bolder">หวยหุ้นต่างประเทศ</td>
    </tr>
        <tr>
      <td class="bolder">นิเคอิ รอบเช้า</td>
      <td class="bolder">งวดวันที่ 26-10-2020</td>
                      <td class="blue bolder ac">441</td>
        <td class="blue bolder ac">41</td>
        <td class="blue bolder ac">18</td>
                  </tr>
          <tr>
      <td class="bolder">หุ้นจีน รอบเช้า</td>
      <td class="bolder">งวดวันที่ 26-10-2020</td>
                      <td class="blue bolder ac">190</td>
        <td class="blue bolder ac">90</td>
        <td class="blue bolder ac">44</td>
                  </tr>
          <tr>
      <td class="bolder">ฮั่งเส็ง รอบเช้า</td>
      <td class="bolder">งวดวันที่ 26-10-2020</td>
              <td colspan="99" class="ac deep-red">ยกเลิก</td>
          </tr>
          <tr>
      <td class="bolder">หุ้นไต้หวัน</td>
      <td class="bolder">งวดวันที่ 26-10-2020</td>
                      <td class="blue bolder ac">903</td>
        <td class="blue bolder ac">03</td>
        <td class="blue bolder ac">21</td>
                  </tr>
          <tr>
      <td class="bolder">หุ้นเกาหลี</td>
      <td class="bolder">งวดวันที่ 26-10-2020</td>
                      <td class="blue bolder ac">106</td>
        <td class="blue bolder ac">06</td>
        <td class="blue bolder ac">32</td>
                  </tr>
          <tr>
      <td class="bolder">นิเคอิ รอบบ่าย</td>
      <td class="bolder">งวดวันที่ 26-10-2020</td>
                      <td class="blue bolder ac">434</td>
        <td class="blue bolder ac">34</td>
        <td class="blue bolder ac">25</td>
                  </tr>
          <tr>
      <td class="bolder">หุ้นจีน รอบบ่าย</td>
      <td class="bolder">งวดวันที่ 26-10-2020</td>
                      <td class="blue bolder ac">125</td>
        <td class="blue bolder ac">25</td>
        <td class="blue bolder ac">79</td>
                  </tr>
          <tr>
      <td class="bolder">ฮั่งเส็ง รอบบ่าย</td>
      <td class="bolder">งวดวันที่ 26-10-2020</td>
              <td colspan="99" class="ac deep-red">ยกเลิก</td>
          </tr>
          <tr>
      <td class="bolder">หุ้นสิงคโปร์</td>
      <td class="bolder">งวดวันที่ 26-10-2020</td>
                      <td class="blue bolder ac">331</td>
        <td class="blue bolder ac">31</td>
        <td class="blue bolder ac">08</td>
                  </tr>
          <tr>
      <td class="bolder">หุ้นอินเดีย</td>
      <td class="bolder">งวดวันที่ 26-10-2020</td>
                      <td class="blue bolder ac">550</td>
        <td class="blue bolder ac">50</td>
        <td class="blue bolder ac">00</td>
                  </tr>
          <tr>
      <td class="bolder">หุ้นอียิปต์</td>
      <td class="bolder">งวดวันที่ 26-10-2020</td>
                      <td class="blue bolder ac">194</td>
        <td class="blue bolder ac">94</td>
        <td class="blue bolder ac">04</td>
                  </tr>
          <tr>
      <td class="bolder">หุ้นรัสเซีย</td>
      <td class="bolder">งวดวันที่ 26-10-2020</td>
                      <td class="blue bolder ac">097</td>
        <td class="blue bolder ac">97</td>
        <td class="blue bolder ac">37</td>
                  </tr>
          <tr>
      <td class="bolder">หุ้นอังกฤษ</td>
      <td class="bolder">งวดวันที่ 26-10-2020</td>
                      <td class="blue bolder ac">201</td>
        <td class="blue bolder ac">01</td>
        <td class="blue bolder ac">27</td>
                  </tr>
          <tr>
      <td class="bolder">หุ้นเยอรมัน</td>
      <td class="bolder">งวดวันที่ 26-10-2020</td>
                      <td class="blue bolder ac">718</td>
        <td class="blue bolder ac">18</td>
        <td class="blue bolder ac">57</td>
                  </tr>
          <tr>
      <td class="bolder">หุ้นดาวน์โจน</td>
      <td class="bolder"></td>
                      <td class="blue bolder ac">&#8211;</td>
        <td class="blue bolder ac">&#8211;</td>
        <td class="blue bolder ac">&#8211;</td>
                  </tr>
  </tbody>

                    </table>