<table id="table-stock-results">
                    <thead class="thin-border-bottom">
                        <tr class="bg-black">
                            <th rowspan="2" class="ac">ชนิดหวย</th>
                            <th rowspan="2" class="ac">ชื่องวด</th>
                            <th colspan="3" class="ac">3 ตัวท้าย</th>
                        </tr>
                        <tr>
                        <th class="ac">3 ตัวบน</th>
                        <th class="ac">2 ตัวบน</th>
                        <th class="ac">2 ตัวล่าง</th>
                        </tr>
                    </thead>
                    <tbody>
            <tr class="table-subsection">
      <td colspan="99" class="ac bolder">ซุปเปอร์ยี่กี</td>
    </tr>
        <tr>
      <td class="bolder">หวยยี่กี</td>
      <td class="bolder">จับยี่กี รอบที่ 1</td>
                      <td class="blue bolder ac">429</td>
        <td class="blue bolder ac">29</td>
        <td class="blue bolder ac">83</td>
                  </tr>
          <tr>
      <td class="bolder">หวยยี่กี</td>
      <td class="bolder">จับยี่กี รอบที่ 2</td>
                      <td class="blue bolder ac">901</td>
        <td class="blue bolder ac">01</td>
        <td class="blue bolder ac">70</td>
                  </tr>
          <tr>
      <td class="bolder">หวยยี่กี</td>
      <td class="bolder">จับยี่กี รอบที่ 3</td>
                      <td class="blue bolder ac">315</td>
        <td class="blue bolder ac">15</td>
        <td class="blue bolder ac">54</td>
                  </tr>
          <tr>
      <td class="bolder">หวยยี่กี</td>
      <td class="bolder">จับยี่กี รอบที่ 4</td>
                      <td class="blue bolder ac">200</td>
        <td class="blue bolder ac">00</td>
        <td class="blue bolder ac">80</td>
                  </tr>
          <tr>
      <td class="bolder">หวยยี่กี</td>
      <td class="bolder">จับยี่กี รอบที่ 5</td>
                      <td class="blue bolder ac">841</td>
        <td class="blue bolder ac">41</td>
        <td class="blue bolder ac">01</td>
                  </tr>
          <tr>
      <td class="bolder">หวยยี่กี</td>
      <td class="bolder">จับยี่กี รอบที่ 6</td>
                      <td class="blue bolder ac">106</td>
        <td class="blue bolder ac">06</td>
        <td class="blue bolder ac">44</td>
                  </tr>
          <tr>
      <td class="bolder">หวยยี่กี</td>
      <td class="bolder">จับยี่กี รอบที่ 7</td>
                      <td class="blue bolder ac">566</td>
        <td class="blue bolder ac">66</td>
        <td class="blue bolder ac">71</td>
                  </tr>
          <tr>
      <td class="bolder">หวยยี่กี</td>
      <td class="bolder">จับยี่กี รอบที่ 8</td>
                      <td class="blue bolder ac">290</td>
        <td class="blue bolder ac">90</td>
        <td class="blue bolder ac">20</td>
                  </tr>
          <tr>
      <td class="bolder">หวยยี่กี</td>
      <td class="bolder">จับยี่กี รอบที่ 9</td>
                      <td class="blue bolder ac">755</td>
        <td class="blue bolder ac">55</td>
        <td class="blue bolder ac">65</td>
                  </tr>
          <tr>
      <td class="bolder">หวยยี่กี</td>
      <td class="bolder">จับยี่กี รอบที่ 10</td>
                      <td class="blue bolder ac">437</td>
        <td class="blue bolder ac">37</td>
        <td class="blue bolder ac">17</td>
                  </tr>
          <tr>
      <td class="bolder">หวยยี่กี</td>
      <td class="bolder">จับยี่กี รอบที่ 11</td>
                      <td class="blue bolder ac">705</td>
        <td class="blue bolder ac">05</td>
        <td class="blue bolder ac">72</td>
                  </tr>
          <tr>
      <td class="bolder">หวยยี่กี</td>
      <td class="bolder">จับยี่กี รอบที่ 12</td>
                      <td class="blue bolder ac">211</td>
        <td class="blue bolder ac">11</td>
        <td class="blue bolder ac">41</td>
                  </tr>
          <tr>
      <td class="bolder">หวยยี่กี</td>
      <td class="bolder">จับยี่กี รอบที่ 13</td>
                      <td class="blue bolder ac">912</td>
        <td class="blue bolder ac">12</td>
        <td class="blue bolder ac">40</td>
                  </tr>
          <tr>
      <td class="bolder">หวยยี่กี</td>
      <td class="bolder">จับยี่กี รอบที่ 14</td>
                      <td class="blue bolder ac">702</td>
        <td class="blue bolder ac">02</td>
        <td class="blue bolder ac">84</td>
                  </tr>
          <tr>
      <td class="bolder">หวยยี่กี</td>
      <td class="bolder">จับยี่กี รอบที่ 15</td>
                      <td class="blue bolder ac">714</td>
        <td class="blue bolder ac">14</td>
        <td class="blue bolder ac">10</td>
                  </tr>
          <tr>
      <td class="bolder">หวยยี่กี</td>
      <td class="bolder">จับยี่กี รอบที่ 16</td>
                      <td class="blue bolder ac">759</td>
        <td class="blue bolder ac">59</td>
        <td class="blue bolder ac">88</td>
                  </tr>
          <tr>
      <td class="bolder">หวยยี่กี</td>
      <td class="bolder">จับยี่กี รอบที่ 17</td>
                      <td class="blue bolder ac">782</td>
        <td class="blue bolder ac">82</td>
        <td class="blue bolder ac">50</td>
                  </tr>
          <tr>
      <td class="bolder">หวยยี่กี</td>
      <td class="bolder">จับยี่กี รอบที่ 18</td>
                      <td class="blue bolder ac">624</td>
        <td class="blue bolder ac">24</td>
        <td class="blue bolder ac">73</td>
                  </tr>
          <tr>
      <td class="bolder">หวยยี่กี</td>
      <td class="bolder">จับยี่กี รอบที่ 19</td>
                      <td class="blue bolder ac">152</td>
        <td class="blue bolder ac">52</td>
        <td class="blue bolder ac">27</td>
                  </tr>
          <tr>
      <td class="bolder">หวยยี่กี</td>
      <td class="bolder">จับยี่กี รอบที่ 20</td>
                      <td class="blue bolder ac">618</td>
        <td class="blue bolder ac">18</td>
        <td class="blue bolder ac">68</td>
                  </tr>
          <tr>
      <td class="bolder">หวยยี่กี</td>
      <td class="bolder">จับยี่กี รอบที่ 21</td>
                      <td class="blue bolder ac">978</td>
        <td class="blue bolder ac">78</td>
        <td class="blue bolder ac">70</td>
                  </tr>
          <tr>
      <td class="bolder">หวยยี่กี</td>
      <td class="bolder">จับยี่กี รอบที่ 22</td>
                      <td class="blue bolder ac">143</td>
        <td class="blue bolder ac">43</td>
        <td class="blue bolder ac">91</td>
                  </tr>
          <tr>
      <td class="bolder">หวยยี่กี</td>
      <td class="bolder">จับยี่กี รอบที่ 23</td>
                      <td class="blue bolder ac">105</td>
        <td class="blue bolder ac">05</td>
        <td class="blue bolder ac">56</td>
                  </tr>
          <tr>
      <td class="bolder">หวยยี่กี</td>
      <td class="bolder">จับยี่กี รอบที่ 24</td>
                      <td class="blue bolder ac">435</td>
        <td class="blue bolder ac">35</td>
        <td class="blue bolder ac">69</td>
                  </tr>
          <tr>
      <td class="bolder">หวยยี่กี</td>
      <td class="bolder">จับยี่กี รอบที่ 25</td>
                      <td class="blue bolder ac">406</td>
        <td class="blue bolder ac">06</td>
        <td class="blue bolder ac">69</td>
                  </tr>
          <tr>
      <td class="bolder">หวยยี่กี</td>
      <td class="bolder">จับยี่กี รอบที่ 26</td>
                      <td class="blue bolder ac">089</td>
        <td class="blue bolder ac">89</td>
        <td class="blue bolder ac">68</td>
                  </tr>
          <tr>
      <td class="bolder">หวยยี่กี</td>
      <td class="bolder">จับยี่กี รอบที่ 27</td>
                      <td class="blue bolder ac">503</td>
        <td class="blue bolder ac">03</td>
        <td class="blue bolder ac">36</td>
                  </tr>
          <tr>
      <td class="bolder">หวยยี่กี</td>
      <td class="bolder">จับยี่กี รอบที่ 28</td>
                      <td class="blue bolder ac">182</td>
        <td class="blue bolder ac">82</td>
        <td class="blue bolder ac">52</td>
                  </tr>
          <tr>
      <td class="bolder">หวยยี่กี</td>
      <td class="bolder">จับยี่กี รอบที่ 29</td>
                      <td class="blue bolder ac">930</td>
        <td class="blue bolder ac">30</td>
        <td class="blue bolder ac">56</td>
                  </tr>
          <tr>
      <td class="bolder">หวยยี่กี</td>
      <td class="bolder">จับยี่กี รอบที่ 30</td>
                      <td class="blue bolder ac">803</td>
        <td class="blue bolder ac">03</td>
        <td class="blue bolder ac">04</td>
                  </tr>
          <tr>
      <td class="bolder">หวยยี่กี</td>
      <td class="bolder">จับยี่กี รอบที่ 31</td>
                      <td class="blue bolder ac">411</td>
        <td class="blue bolder ac">11</td>
        <td class="blue bolder ac">70</td>
                  </tr>
          <tr>
      <td class="bolder">หวยยี่กี</td>
      <td class="bolder">จับยี่กี รอบที่ 32</td>
                      <td class="blue bolder ac">197</td>
        <td class="blue bolder ac">97</td>
        <td class="blue bolder ac">22</td>
                  </tr>
          <tr>
      <td class="bolder">หวยยี่กี</td>
      <td class="bolder">จับยี่กี รอบที่ 33</td>
                      <td class="blue bolder ac">456</td>
        <td class="blue bolder ac">56</td>
        <td class="blue bolder ac">92</td>
                  </tr>
          <tr>
      <td class="bolder">หวยยี่กี</td>
      <td class="bolder">จับยี่กี รอบที่ 34</td>
                      <td class="blue bolder ac">515</td>
        <td class="blue bolder ac">15</td>
        <td class="blue bolder ac">90</td>
                  </tr>
          <tr>
      <td class="bolder">หวยยี่กี</td>
      <td class="bolder">จับยี่กี รอบที่ 35</td>
                      <td class="blue bolder ac">703</td>
        <td class="blue bolder ac">03</td>
        <td class="blue bolder ac">24</td>
                  </tr>
          <tr>
      <td class="bolder">หวยยี่กี</td>
      <td class="bolder">จับยี่กี รอบที่ 36</td>
                      <td class="blue bolder ac">169</td>
        <td class="blue bolder ac">69</td>
        <td class="blue bolder ac">64</td>
                  </tr>
          <tr>
      <td class="bolder">หวยยี่กี</td>
      <td class="bolder">จับยี่กี รอบที่ 37</td>
                      <td class="blue bolder ac">524</td>
        <td class="blue bolder ac">24</td>
        <td class="blue bolder ac">45</td>
                  </tr>
          <tr>
      <td class="bolder">หวยยี่กี</td>
      <td class="bolder">จับยี่กี รอบที่ 38</td>
                      <td class="blue bolder ac">816</td>
        <td class="blue bolder ac">16</td>
        <td class="blue bolder ac">63</td>
                  </tr>
          <tr>
      <td class="bolder">หวยยี่กี</td>
      <td class="bolder">จับยี่กี รอบที่ 39</td>
                      <td class="blue bolder ac">790</td>
        <td class="blue bolder ac">90</td>
        <td class="blue bolder ac">43</td>
                  </tr>
          <tr>
      <td class="bolder">หวยยี่กี</td>
      <td class="bolder">จับยี่กี รอบที่ 40</td>
                      <td class="blue bolder ac">206</td>
        <td class="blue bolder ac">06</td>
        <td class="blue bolder ac">11</td>
                  </tr>
          <tr>
      <td class="bolder">หวยยี่กี</td>
      <td class="bolder">จับยี่กี รอบที่ 41</td>
                      <td class="blue bolder ac">646</td>
        <td class="blue bolder ac">46</td>
        <td class="blue bolder ac">15</td>
                  </tr>
          <tr>
      <td class="bolder">หวยยี่กี</td>
      <td class="bolder">จับยี่กี รอบที่ 42</td>
                      <td class="blue bolder ac">966</td>
        <td class="blue bolder ac">66</td>
        <td class="blue bolder ac">90</td>
                  </tr>
          <tr>
      <td class="bolder">หวยยี่กี</td>
      <td class="bolder">จับยี่กี รอบที่ 43</td>
                      <td class="blue bolder ac">122</td>
        <td class="blue bolder ac">22</td>
        <td class="blue bolder ac">64</td>
                  </tr>
          <tr>
      <td class="bolder">หวยยี่กี</td>
      <td class="bolder">จับยี่กี รอบที่ 44</td>
                      <td class="blue bolder ac">559</td>
        <td class="blue bolder ac">59</td>
        <td class="blue bolder ac">67</td>
                  </tr>
          <tr>
      <td class="bolder">หวยยี่กี</td>
      <td class="bolder">จับยี่กี รอบที่ 45</td>
                      <td class="blue bolder ac">015</td>
        <td class="blue bolder ac">15</td>
        <td class="blue bolder ac">13</td>
                  </tr>
          <tr>
      <td class="bolder">หวยยี่กี</td>
      <td class="bolder">จับยี่กี รอบที่ 46</td>
                      <td class="blue bolder ac">012</td>
        <td class="blue bolder ac">12</td>
        <td class="blue bolder ac">18</td>
                  </tr>
          <tr>
      <td class="bolder">หวยยี่กี</td>
      <td class="bolder">จับยี่กี รอบที่ 47</td>
                      <td class="blue bolder ac">567</td>
        <td class="blue bolder ac">67</td>
        <td class="blue bolder ac">80</td>
                  </tr>
          <tr>
      <td class="bolder">หวยยี่กี</td>
      <td class="bolder">จับยี่กี รอบที่ 48</td>
                      <td class="blue bolder ac">848</td>
        <td class="blue bolder ac">48</td>
        <td class="blue bolder ac">18</td>
                  </tr>
          <tr>
      <td class="bolder">หวยยี่กี</td>
      <td class="bolder">จับยี่กี รอบที่ 49</td>
                      <td class="blue bolder ac">717</td>
        <td class="blue bolder ac">17</td>
        <td class="blue bolder ac">14</td>
                  </tr>
          <tr>
      <td class="bolder">หวยยี่กี</td>
      <td class="bolder">จับยี่กี รอบที่ 50</td>
                      <td class="blue bolder ac">159</td>
        <td class="blue bolder ac">59</td>
        <td class="blue bolder ac">61</td>
                  </tr>
          <tr>
      <td class="bolder">หวยยี่กี</td>
      <td class="bolder">จับยี่กี รอบที่ 51</td>
                      <td class="blue bolder ac">359</td>
        <td class="blue bolder ac">59</td>
        <td class="blue bolder ac">07</td>
                  </tr>
          <tr>
      <td class="bolder">หวยยี่กี</td>
      <td class="bolder">จับยี่กี รอบที่ 52</td>
                      <td class="blue bolder ac">532</td>
        <td class="blue bolder ac">32</td>
        <td class="blue bolder ac">18</td>
                  </tr>
          <tr>
      <td class="bolder">หวยยี่กี</td>
      <td class="bolder">จับยี่กี รอบที่ 53</td>
                      <td class="blue bolder ac">259</td>
        <td class="blue bolder ac">59</td>
        <td class="blue bolder ac">54</td>
                  </tr>
          <tr>
      <td class="bolder">หวยยี่กี</td>
      <td class="bolder">จับยี่กี รอบที่ 54</td>
                      <td class="blue bolder ac">619</td>
        <td class="blue bolder ac">19</td>
        <td class="blue bolder ac">65</td>
                  </tr>
          <tr>
      <td class="bolder">หวยยี่กี</td>
      <td class="bolder">จับยี่กี รอบที่ 55</td>
                      <td class="blue bolder ac">089</td>
        <td class="blue bolder ac">89</td>
        <td class="blue bolder ac">78</td>
                  </tr>
          <tr>
      <td class="bolder">หวยยี่กี</td>
      <td class="bolder">จับยี่กี รอบที่ 56</td>
                      <td class="blue bolder ac">910</td>
        <td class="blue bolder ac">10</td>
        <td class="blue bolder ac">11</td>
                  </tr>
          <tr>
      <td class="bolder">หวยยี่กี</td>
      <td class="bolder">จับยี่กี รอบที่ 57</td>
                      <td class="blue bolder ac">451</td>
        <td class="blue bolder ac">51</td>
        <td class="blue bolder ac">41</td>
                  </tr>
          <tr>
      <td class="bolder">หวยยี่กี</td>
      <td class="bolder">จับยี่กี รอบที่ 58</td>
                      <td class="blue bolder ac">664</td>
        <td class="blue bolder ac">64</td>
        <td class="blue bolder ac">35</td>
                  </tr>
          <tr>
      <td class="bolder">หวยยี่กี</td>
      <td class="bolder">จับยี่กี รอบที่ 59</td>
                      <td class="blue bolder ac">653</td>
        <td class="blue bolder ac">53</td>
        <td class="blue bolder ac">97</td>
                  </tr>
          <tr>
      <td class="bolder">หวยยี่กี</td>
      <td class="bolder">จับยี่กี รอบที่ 60</td>
                      <td class="blue bolder ac">687</td>
        <td class="blue bolder ac">87</td>
        <td class="blue bolder ac">47</td>
                  </tr>
          <tr>
      <td class="bolder">หวยยี่กี</td>
      <td class="bolder">จับยี่กี รอบที่ 61</td>
                      <td class="blue bolder ac">678</td>
        <td class="blue bolder ac">78</td>
        <td class="blue bolder ac">97</td>
                  </tr>
          <tr>
      <td class="bolder">หวยยี่กี</td>
      <td class="bolder">จับยี่กี รอบที่ 62</td>
                      <td class="blue bolder ac">704</td>
        <td class="blue bolder ac">04</td>
        <td class="blue bolder ac">30</td>
                  </tr>
          <tr>
      <td class="bolder">หวยยี่กี</td>
      <td class="bolder">จับยี่กี รอบที่ 63</td>
                      <td class="blue bolder ac">801</td>
        <td class="blue bolder ac">01</td>
        <td class="blue bolder ac">47</td>
                  </tr>
          <tr>
      <td class="bolder">หวยยี่กี</td>
      <td class="bolder">จับยี่กี รอบที่ 64</td>
                      <td class="blue bolder ac">063</td>
        <td class="blue bolder ac">63</td>
        <td class="blue bolder ac">14</td>
                  </tr>
          <tr>
      <td class="bolder">หวยยี่กี</td>
      <td class="bolder">จับยี่กี รอบที่ 65</td>
                      <td class="blue bolder ac">490</td>
        <td class="blue bolder ac">90</td>
        <td class="blue bolder ac">26</td>
                  </tr>
          <tr>
      <td class="bolder">หวยยี่กี</td>
      <td class="bolder">จับยี่กี รอบที่ 66</td>
                      <td class="blue bolder ac">444</td>
        <td class="blue bolder ac">44</td>
        <td class="blue bolder ac">49</td>
                  </tr>
          <tr>
      <td class="bolder">หวยยี่กี</td>
      <td class="bolder">จับยี่กี รอบที่ 67</td>
                      <td class="blue bolder ac">731</td>
        <td class="blue bolder ac">31</td>
        <td class="blue bolder ac">62</td>
                  </tr>
          <tr>
      <td class="bolder">หวยยี่กี</td>
      <td class="bolder">จับยี่กี รอบที่ 68</td>
                      <td class="blue bolder ac">098</td>
        <td class="blue bolder ac">98</td>
        <td class="blue bolder ac">45</td>
                  </tr>
          <tr>
      <td class="bolder">หวยยี่กี</td>
      <td class="bolder">จับยี่กี รอบที่ 69</td>
                      <td class="blue bolder ac">039</td>
        <td class="blue bolder ac">39</td>
        <td class="blue bolder ac">49</td>
                  </tr>
          <tr>
      <td class="bolder">หวยยี่กี</td>
      <td class="bolder">จับยี่กี รอบที่ 70</td>
                      <td class="blue bolder ac">209</td>
        <td class="blue bolder ac">09</td>
        <td class="blue bolder ac">04</td>
                  </tr>
          <tr>
      <td class="bolder">หวยยี่กี</td>
      <td class="bolder">จับยี่กี รอบที่ 71</td>
                      <td class="blue bolder ac">772</td>
        <td class="blue bolder ac">72</td>
        <td class="blue bolder ac">14</td>
                  </tr>
          <tr>
      <td class="bolder">หวยยี่กี</td>
      <td class="bolder">จับยี่กี รอบที่ 72</td>
                      <td class="blue bolder ac">455</td>
        <td class="blue bolder ac">55</td>
        <td class="blue bolder ac">41</td>
                  </tr>
          <tr>
      <td class="bolder">หวยยี่กี</td>
      <td class="bolder">จับยี่กี รอบที่ 73</td>
                      <td class="blue bolder ac">722</td>
        <td class="blue bolder ac">22</td>
        <td class="blue bolder ac">22</td>
                  </tr>
          <tr>
      <td class="bolder">หวยยี่กี</td>
      <td class="bolder">จับยี่กี รอบที่ 74</td>
                      <td class="blue bolder ac">610</td>
        <td class="blue bolder ac">10</td>
        <td class="blue bolder ac">97</td>
                  </tr>
          <tr>
      <td class="bolder">หวยยี่กี</td>
      <td class="bolder">จับยี่กี รอบที่ 75</td>
                      <td class="blue bolder ac">272</td>
        <td class="blue bolder ac">72</td>
        <td class="blue bolder ac">59</td>
                  </tr>
          <tr>
      <td class="bolder">หวยยี่กี</td>
      <td class="bolder">จับยี่กี รอบที่ 76</td>
                      <td class="blue bolder ac">862</td>
        <td class="blue bolder ac">62</td>
        <td class="blue bolder ac">10</td>
                  </tr>
          <tr>
      <td class="bolder">หวยยี่กี</td>
      <td class="bolder">จับยี่กี รอบที่ 77</td>
                      <td class="blue bolder ac">807</td>
        <td class="blue bolder ac">07</td>
        <td class="blue bolder ac">49</td>
                  </tr>
          <tr>
      <td class="bolder">หวยยี่กี</td>
      <td class="bolder">จับยี่กี รอบที่ 78</td>
                      <td class="blue bolder ac">302</td>
        <td class="blue bolder ac">02</td>
        <td class="blue bolder ac">89</td>
                  </tr>
          <tr>
      <td class="bolder">หวยยี่กี</td>
      <td class="bolder">จับยี่กี รอบที่ 79</td>
                      <td class="blue bolder ac">515</td>
        <td class="blue bolder ac">15</td>
        <td class="blue bolder ac">58</td>
                  </tr>
          <tr>
      <td class="bolder">หวยยี่กี</td>
      <td class="bolder">จับยี่กี รอบที่ 80</td>
                      <td class="blue bolder ac">070</td>
        <td class="blue bolder ac">70</td>
        <td class="blue bolder ac">55</td>
                  </tr>
          <tr>
      <td class="bolder">หวยยี่กี</td>
      <td class="bolder">จับยี่กี รอบที่ 81</td>
                      <td class="blue bolder ac">413</td>
        <td class="blue bolder ac">13</td>
        <td class="blue bolder ac">58</td>
                  </tr>
          <tr>
      <td class="bolder">หวยยี่กี</td>
      <td class="bolder">จับยี่กี รอบที่ 82</td>
                      <td class="blue bolder ac">661</td>
        <td class="blue bolder ac">61</td>
        <td class="blue bolder ac">80</td>
                  </tr>
          <tr>
      <td class="bolder">หวยยี่กี</td>
      <td class="bolder">จับยี่กี รอบที่ 83</td>
                      <td class="blue bolder ac">385</td>
        <td class="blue bolder ac">85</td>
        <td class="blue bolder ac">04</td>
                  </tr>
          <tr>
      <td class="bolder">หวยยี่กี</td>
      <td class="bolder">จับยี่กี รอบที่ 84</td>
                      <td class="blue bolder ac">551</td>
        <td class="blue bolder ac">51</td>
        <td class="blue bolder ac">97</td>
                  </tr>
          <tr>
      <td class="bolder">หวยยี่กี</td>
      <td class="bolder">จับยี่กี รอบที่ 85</td>
                      <td class="blue bolder ac">738</td>
        <td class="blue bolder ac">38</td>
        <td class="blue bolder ac">46</td>
                  </tr>
          <tr>
      <td class="bolder">หวยยี่กี</td>
      <td class="bolder">จับยี่กี รอบที่ 86</td>
                      <td class="blue bolder ac">100</td>
        <td class="blue bolder ac">00</td>
        <td class="blue bolder ac">03</td>
                  </tr>
          <tr>
      <td class="bolder">หวยยี่กี</td>
      <td class="bolder">จับยี่กี รอบที่ 87</td>
                      <td class="blue bolder ac">856</td>
        <td class="blue bolder ac">56</td>
        <td class="blue bolder ac">99</td>
                  </tr>
          <tr>
      <td class="bolder">หวยยี่กี</td>
      <td class="bolder">จับยี่กี รอบที่ 88</td>
                      <td class="blue bolder ac">296</td>
        <td class="blue bolder ac">96</td>
        <td class="blue bolder ac">02</td>
                  </tr>
          <tr class="table-subsection">
      <td colspan="99" class="ac bolder">หวย ธกส.</td>
    </tr>
        <tr>
      <td class="bolder">หวย ธกส. (BAAC1)</td>
      <td class="bolder"></td>
                      <td class="blue bolder ac">&#8211;</td>
        <td class="blue bolder ac">&#8211;</td>
        <td class="blue bolder ac">&#8211;</td>
                  </tr>
          <tr>
      <td class="bolder">หวย ธกส. (BAAC2)</td>
      <td class="bolder"></td>
                      <td class="blue bolder ac">&#8211;</td>
        <td class="blue bolder ac">&#8211;</td>
        <td class="blue bolder ac">&#8211;</td>
                  </tr>
          <tr class="table-subsection">
      <td colspan="99" class="ac bolder">หวยหุ้นไทย</td>
    </tr>
        <tr>
      <td class="bolder">หวยหุ้นไทย รอบปิดเย็น</td>
      <td class="bolder">งวดวันที่ 30-10-2020</td>
                      <td class="blue bolder ac">695</td>
        <td class="blue bolder ac">95</td>
        <td class="blue bolder ac">69</td>
                  </tr>
          <tr class="table-subsection">
      <td colspan="99" class="ac bolder">หวยลาว</td>
    </tr>
        <tr>
      <td class="bolder">หวยลาว วันจันทร์</td>
      <td class="bolder"></td>
                      <td class="blue bolder ac">&#8211;</td>
        <td class="blue bolder ac">&#8211;</td>
        <td class="blue bolder ac">&#8211;</td>
                  </tr>
          <tr>
      <td class="bolder">หวยลาว วันพุธ</td>
      <td class="bolder"></td>
                      <td class="blue bolder ac">&#8211;</td>
        <td class="blue bolder ac">&#8211;</td>
        <td class="blue bolder ac">&#8211;</td>
                  </tr>
          <tr>
      <td class="bolder">หวยลาว วันพฤหัส</td>
      <td class="bolder"></td>
                      <td class="blue bolder ac">&#8211;</td>
        <td class="blue bolder ac">&#8211;</td>
        <td class="blue bolder ac">&#8211;</td>
                  </tr>
          <tr class="table-subsection">
      <td colspan="99" class="ac bolder">Laostoday</td>
    </tr>
        <tr>
      <td class="bolder">ลาวทูเดย์</td>
      <td class="bolder"></td>
                      <td class="blue bolder ac">&#8211;</td>
        <td class="blue bolder ac">&#8211;</td>
        <td class="blue bolder ac">&#8211;</td>
                  </tr>
          <tr class="table-subsection">
      <td colspan="99" class="ac bolder">หวยเวียดนาม</td>
    </tr>
        <tr>
      <td class="bolder">ฮานอย H&agrave; Nội</td>
      <td class="bolder">งวดวันที่ 30-10-2020</td>
                      <td class="blue bolder ac">483</td>
        <td class="blue bolder ac">83</td>
        <td class="blue bolder ac">78</td>
                  </tr>
          <tr>
      <td class="bolder">ฮานอย วีไอพี Hanoi Vip</td>
      <td class="bolder">งวดวันที่ 30-10-2020</td>
                      <td class="blue bolder ac">687</td>
        <td class="blue bolder ac">87</td>
        <td class="blue bolder ac">41</td>
                  </tr>
          <tr class="table-subsection">
      <td colspan="99" class="ac bolder">หวยฮานอย แดงดำ</td>
    </tr>
        <tr>
      <td class="bolder">ฮานอย แดง</td>
      <td class="bolder">งวดวันที่ 30-10-2020</td>
                      <td class="blue bolder ac">483</td>
        <td class="blue bolder ac">83</td>
        <td class="blue bolder ac">57</td>
                  </tr>
          <tr>
      <td class="bolder">ฮานอย ดำ</td>
      <td class="bolder">งวดวันที่ 30-10-2020</td>
                      <td class="blue bolder ac">336</td>
        <td class="blue bolder ac">36</td>
        <td class="blue bolder ac">78</td>
                  </tr>
          <tr class="table-subsection">
      <td colspan="99" class="ac bolder">หวยเวียดนาม (ออนไลน์)</td>
    </tr>
        <tr>
      <td class="bolder">เวียดนาม</td>
      <td class="bolder">งวดวันที่ 30-10-2020</td>
                      <td class="blue bolder ac">610</td>
        <td class="blue bolder ac">10</td>
        <td class="blue bolder ac">53</td>
                  </tr>
          <tr>
      <td class="bolder">เวียดนาม VIP</td>
      <td class="bolder">งวดวันที่ 30-10-2020</td>
                      <td class="blue bolder ac">271</td>
        <td class="blue bolder ac">71</td>
        <td class="blue bolder ac">59</td>
                  </tr>
          <tr class="table-subsection">
      <td colspan="99" class="ac bolder">หวยมาเลย์ (Magnum4D)</td>
    </tr>
        <tr>
      <td class="bolder">หวยมาเลย์ วันพุธ</td>
      <td class="bolder"></td>
                      <td class="blue bolder ac">&#8211;</td>
        <td class="blue bolder ac">&#8211;</td>
        <td class="blue bolder ac">&#8211;</td>
                  </tr>
          <tr>
      <td class="bolder">หวยมาเลย์ วันเสาร์</td>
      <td class="bolder"></td>
                      <td class="blue bolder ac">&#8211;</td>
        <td class="blue bolder ac">&#8211;</td>
        <td class="blue bolder ac">&#8211;</td>
                  </tr>
          <tr>
      <td class="bolder">หวยมาเลย์ วันอาทิตย์</td>
      <td class="bolder"></td>
                      <td class="blue bolder ac">&#8211;</td>
        <td class="blue bolder ac">&#8211;</td>
        <td class="blue bolder ac">&#8211;</td>
                  </tr>
          <tr class="table-subsection">
      <td colspan="99" class="ac bolder">หวยหุ้นต่างประเทศ</td>
    </tr>
        <tr>
      <td class="bolder">นิเคอิ รอบเช้า</td>
      <td class="bolder">งวดวันที่ 30-10-2020</td>
                      <td class="blue bolder ac">637</td>
        <td class="blue bolder ac">37</td>
        <td class="blue bolder ac">57</td>
                  </tr>
          <tr>
      <td class="bolder">หุ้นจีน รอบเช้า</td>
      <td class="bolder">งวดวันที่ 30-10-2020</td>
                      <td class="blue bolder ac">332</td>
        <td class="blue bolder ac">32</td>
        <td class="blue bolder ac">34</td>
                  </tr>
          <tr>
      <td class="bolder">ฮั่งเส็ง รอบเช้า</td>
      <td class="bolder">งวดวันที่ 30-10-2020</td>
                      <td class="blue bolder ac">022</td>
        <td class="blue bolder ac">22</td>
        <td class="blue bolder ac">38</td>
                  </tr>
          <tr>
      <td class="bolder">หุ้นไต้หวัน</td>
      <td class="bolder">งวดวันที่ 30-10-2020</td>
                      <td class="blue bolder ac">634</td>
        <td class="blue bolder ac">34</td>
        <td class="blue bolder ac">57</td>
                  </tr>
          <tr>
      <td class="bolder">หุ้นเกาหลี</td>
      <td class="bolder">งวดวันที่ 30-10-2020</td>
                      <td class="blue bolder ac">138</td>
        <td class="blue bolder ac">38</td>
        <td class="blue bolder ac">52</td>
                  </tr>
          <tr>
      <td class="bolder">นิเคอิ รอบบ่าย</td>
      <td class="bolder">งวดวันที่ 30-10-2020</td>
                      <td class="blue bolder ac">713</td>
        <td class="blue bolder ac">13</td>
        <td class="blue bolder ac">81</td>
                  </tr>
          <tr>
      <td class="bolder">หุ้นจีน รอบบ่าย</td>
      <td class="bolder">งวดวันที่ 30-10-2020</td>
                      <td class="blue bolder ac">660</td>
        <td class="blue bolder ac">60</td>
        <td class="blue bolder ac">06</td>
                  </tr>
          <tr>
      <td class="bolder">ฮั่งเส็ง รอบบ่าย</td>
      <td class="bolder">งวดวันที่ 30-10-2020</td>
                      <td class="blue bolder ac">742</td>
        <td class="blue bolder ac">42</td>
        <td class="blue bolder ac">18</td>
                  </tr>
          <tr>
      <td class="bolder">หุ้นสิงคโปร์</td>
      <td class="bolder">งวดวันที่ 30-10-2020</td>
                      <td class="blue bolder ac">384</td>
        <td class="blue bolder ac">84</td>
        <td class="blue bolder ac">84</td>
                  </tr>
          <tr>
      <td class="bolder">หุ้นอินเดีย</td>
      <td class="bolder">งวดวันที่ 30-10-2020</td>
                      <td class="blue bolder ac">407</td>
        <td class="blue bolder ac">07</td>
        <td class="blue bolder ac">78</td>
                  </tr>
          <tr>
      <td class="bolder">หุ้นอียิปต์</td>
      <td class="bolder"></td>
                      <td class="blue bolder ac">&#8211;</td>
        <td class="blue bolder ac">&#8211;</td>
        <td class="blue bolder ac">&#8211;</td>
                  </tr>
          <tr>
      <td class="bolder">หุ้นรัสเซีย</td>
      <td class="bolder">งวดวันที่ 30-10-2020</td>
                      <td class="blue bolder ac">938</td>
        <td class="blue bolder ac">38</td>
        <td class="blue bolder ac">98</td>
                  </tr>
          <tr>
      <td class="bolder">หุ้นอังกฤษ</td>
      <td class="bolder">งวดวันที่ 30-10-2020</td>
                      <td class="blue bolder ac">727</td>
        <td class="blue bolder ac">27</td>
        <td class="blue bolder ac">48</td>
                  </tr>
          <tr>
      <td class="bolder">หุ้นเยอรมัน</td>
      <td class="bolder">งวดวันที่ 30-10-2020</td>
                      <td class="blue bolder ac">648</td>
        <td class="blue bolder ac">48</td>
        <td class="blue bolder ac">59</td>
                  </tr>
          <tr>
      <td class="bolder">หุ้นดาวน์โจน</td>
      <td class="bolder">งวดวันที่ 30-10-2020</td>
                      <td class="blue bolder ac">911</td>
        <td class="blue bolder ac">11</td>
        <td class="blue bolder ac">16</td>
                  </tr>
  </tbody>

                    </table>